%YAML 1.1
%TAG !u! tag:unity3d.com,2011:
--- !u!1001 &6093406078256066705
PrefabInstance:
  m_ObjectHideFlags: 0
  serializedVersion: 2
  m_Modification:
    m_TransformParent: {fileID: 0}
    m_Modifications:
    - target: {fileID: 512626831325866060, guid: 47f466730d0b5c348a429a4dccd43ca9, type: 3}
      propertyPath: m_RootOrder
      value: 0
      objectReference: {fileID: 0}
    - target: {fileID: 512626831325866060, guid: 47f466730d0b5c348a429a4dccd43ca9, type: 3}
      propertyPath: m_LocalPosition.x
      value: 0
      objectReference: {fileID: 0}
    - target: {fileID: 512626831325866060, guid: 47f466730d0b5c348a429a4dccd43ca9, type: 3}
      propertyPath: m_LocalPosition.y
      value: 0
      objectReference: {fileID: 0}
    - target: {fileID: 512626831325866060, guid: 47f466730d0b5c348a429a4dccd43ca9, type: 3}
      propertyPath: m_LocalPosition.z
      value: 0
      objectReference: {fileID: 0}
    - target: {fileID: 512626831325866060, guid: 47f466730d0b5c348a429a4dccd43ca9, type: 3}
      propertyPath: m_LocalRotation.w
      value: 0
      objectReference: {fileID: 0}
    - target: {fileID: 512626831325866060, guid: 47f466730d0b5c348a429a4dccd43ca9, type: 3}
      propertyPath: m_LocalRotation.x
      value: 0
      objectReference: {fileID: 0}
    - target: {fileID: 512626831325866060, guid: 47f466730d0b5c348a429a4dccd43ca9, type: 3}
      propertyPath: m_LocalRotation.y
      value: 1
      objectReference: {fileID: 0}
    - target: {fileID: 512626831325866060, guid: 47f466730d0b5c348a429a4dccd43ca9, type: 3}
      propertyPath: m_LocalRotation.z
      value: 0
      objectReference: {fileID: 0}
    - target: {fileID: 512626831325866060, guid: 47f466730d0b5c348a429a4dccd43ca9, type: 3}
      propertyPath: m_LocalEulerAnglesHint.x
      value: 0
      objectReference: {fileID: 0}
    - target: {fileID: 512626831325866060, guid: 47f466730d0b5c348a429a4dccd43ca9, type: 3}
      propertyPath: m_LocalEulerAnglesHint.y
      value: 180
      objectReference: {fileID: 0}
    - target: {fileID: 512626831325866060, guid: 47f466730d0b5c348a429a4dccd43ca9, type: 3}
      propertyPath: m_LocalEulerAnglesHint.z
      value: 0
      objectReference: {fileID: 0}
    - target: {fileID: 7955935595417264323, guid: 47f466730d0b5c348a429a4dccd43ca9, type: 3}
      propertyPath: m_Name
      value: building_largeC_north
      objectReference: {fileID: 0}
    m_RemovedComponents: []
  m_SourcePrefab: {fileID: 100100000, guid: 47f466730d0b5c348a429a4dccd43ca9, type: 3}
