%YAML 1.1
%TAG !u! tag:unity3d.com,2011:
--- !u!1001 &2895019505093114380
PrefabInstance:
  m_ObjectHideFlags: 0
  serializedVersion: 2
  m_Modification:
    m_TransformParent: {fileID: 0}
    m_Modifications:
    - target: {fileID: 92295788799622547, guid: f734809ef3b56f04d862b6f746244538, type: 3}
      propertyPath: m_LocalPosition.x
      value: 0.33613622
      objectReference: {fileID: 0}
    - target: {fileID: 92295788799622547, guid: f734809ef3b56f04d862b6f746244538, type: 3}
      propertyPath: m_LocalPosition.z
      value: -1.2795227
      objectReference: {fileID: 0}
    - target: {fileID: 6505841443493682738, guid: f734809ef3b56f04d862b6f746244538, type: 3}
      propertyPath: m_LocalPosition.x
      value: 0.33613622
      objectReference: {fileID: 0}
    - target: {fileID: 6505841443493682738, guid: f734809ef3b56f04d862b6f746244538, type: 3}
      propertyPath: m_LocalPosition.z
      value: -1.2795227
      objectReference: {fileID: 0}
    - target: {fileID: 6724833934019886781, guid: f734809ef3b56f04d862b6f746244538, type: 3}
      propertyPath: m_Name
      value: building_house05_north
      objectReference: {fileID: 0}
    - target: {fileID: 7055046320659540889, guid: f734809ef3b56f04d862b6f746244538, type: 3}
      propertyPath: m_LocalPosition.x
      value: -1.0000118
      objectReference: {fileID: 0}
    - target: {fileID: 7055046320659540889, guid: f734809ef3b56f04d862b6f746244538, type: 3}
      propertyPath: m_LocalPosition.z
      value: -1.999994
      objectReference: {fileID: 0}
    - target: {fileID: 8465307287756235326, guid: f734809ef3b56f04d862b6f746244538, type: 3}
      propertyPath: m_RootOrder
      value: 0
      objectReference: {fileID: 0}
    - target: {fileID: 8465307287756235326, guid: f734809ef3b56f04d862b6f746244538, type: 3}
      propertyPath: m_LocalPosition.x
      value: 0
      objectReference: {fileID: 0}
    - target: {fileID: 8465307287756235326, guid: f734809ef3b56f04d862b6f746244538, type: 3}
      propertyPath: m_LocalPosition.y
      value: 0
      objectReference: {fileID: 0}
    - target: {fileID: 8465307287756235326, guid: f734809ef3b56f04d862b6f746244538, type: 3}
      propertyPath: m_LocalPosition.z
      value: 0
      objectReference: {fileID: 0}
    - target: {fileID: 8465307287756235326, guid: f734809ef3b56f04d862b6f746244538, type: 3}
      propertyPath: m_LocalRotation.w
      value: 0.0000029504295
      objectReference: {fileID: 0}
    - target: {fileID: 8465307287756235326, guid: f734809ef3b56f04d862b6f746244538, type: 3}
      propertyPath: m_LocalRotation.x
      value: -0
      objectReference: {fileID: 0}
    - target: {fileID: 8465307287756235326, guid: f734809ef3b56f04d862b6f746244538, type: 3}
      propertyPath: m_LocalRotation.y
      value: 1
      objectReference: {fileID: 0}
    - target: {fileID: 8465307287756235326, guid: f734809ef3b56f04d862b6f746244538, type: 3}
      propertyPath: m_LocalRotation.z
      value: -0
      objectReference: {fileID: 0}
    - target: {fileID: 8465307287756235326, guid: f734809ef3b56f04d862b6f746244538, type: 3}
      propertyPath: m_LocalEulerAnglesHint.x
      value: 0
      objectReference: {fileID: 0}
    - target: {fileID: 8465307287756235326, guid: f734809ef3b56f04d862b6f746244538, type: 3}
      propertyPath: m_LocalEulerAnglesHint.y
      value: 180
      objectReference: {fileID: 0}
    - target: {fileID: 8465307287756235326, guid: f734809ef3b56f04d862b6f746244538, type: 3}
      propertyPath: m_LocalEulerAnglesHint.z
      value: 0
      objectReference: {fileID: 0}
    - target: {fileID: 9222564897865443808, guid: f734809ef3b56f04d862b6f746244538, type: 3}
      propertyPath: m_LocalPosition.x
      value: -0.5300118
      objectReference: {fileID: 0}
    - target: {fileID: 9222564897865443808, guid: f734809ef3b56f04d862b6f746244538, type: 3}
      propertyPath: m_LocalPosition.z
      value: -1.6999941
      objectReference: {fileID: 0}
    m_RemovedComponents: []
  m_SourcePrefab: {fileID: 100100000, guid: f734809ef3b56f04d862b6f746244538, type: 3}
