%YAML 1.1
%TAG !u! tag:unity3d.com,2011:
--- !u!1001 &4567235477988968215
PrefabInstance:
  m_ObjectHideFlags: 0
  serializedVersion: 2
  m_Modification:
    m_TransformParent: {fileID: 0}
    m_Modifications:
    - target: {fileID: 3377155600565284658, guid: ed2860dd1cca70e4789bbd4cd83158e6, type: 3}
      propertyPath: m_RootOrder
      value: 0
      objectReference: {fileID: 0}
    - target: {fileID: 3377155600565284658, guid: ed2860dd1cca70e4789bbd4cd83158e6, type: 3}
      propertyPath: m_LocalPosition.x
      value: 0
      objectReference: {fileID: 0}
    - target: {fileID: 3377155600565284658, guid: ed2860dd1cca70e4789bbd4cd83158e6, type: 3}
      propertyPath: m_LocalPosition.y
      value: 0
      objectReference: {fileID: 0}
    - target: {fileID: 3377155600565284658, guid: ed2860dd1cca70e4789bbd4cd83158e6, type: 3}
      propertyPath: m_LocalPosition.z
      value: 0
      objectReference: {fileID: 0}
    - target: {fileID: 3377155600565284658, guid: ed2860dd1cca70e4789bbd4cd83158e6, type: 3}
      propertyPath: m_LocalRotation.w
      value: 0.70710784
      objectReference: {fileID: 0}
    - target: {fileID: 3377155600565284658, guid: ed2860dd1cca70e4789bbd4cd83158e6, type: 3}
      propertyPath: m_LocalRotation.x
      value: -0
      objectReference: {fileID: 0}
    - target: {fileID: 3377155600565284658, guid: ed2860dd1cca70e4789bbd4cd83158e6, type: 3}
      propertyPath: m_LocalRotation.y
      value: -0.70710576
      objectReference: {fileID: 0}
    - target: {fileID: 3377155600565284658, guid: ed2860dd1cca70e4789bbd4cd83158e6, type: 3}
      propertyPath: m_LocalRotation.z
      value: -0
      objectReference: {fileID: 0}
    - target: {fileID: 3377155600565284658, guid: ed2860dd1cca70e4789bbd4cd83158e6, type: 3}
      propertyPath: m_LocalEulerAnglesHint.x
      value: 0
      objectReference: {fileID: 0}
    - target: {fileID: 3377155600565284658, guid: ed2860dd1cca70e4789bbd4cd83158e6, type: 3}
      propertyPath: m_LocalEulerAnglesHint.y
      value: -90
      objectReference: {fileID: 0}
    - target: {fileID: 3377155600565284658, guid: ed2860dd1cca70e4789bbd4cd83158e6, type: 3}
      propertyPath: m_LocalEulerAnglesHint.z
      value: 0
      objectReference: {fileID: 0}
    - target: {fileID: 4326296627755179346, guid: ed2860dd1cca70e4789bbd4cd83158e6, type: 3}
      propertyPath: sizeX
      value: 2
      objectReference: {fileID: 0}
    - target: {fileID: 4326296627755179346, guid: ed2860dd1cca70e4789bbd4cd83158e6, type: 3}
      propertyPath: sizeY
      value: 3
      objectReference: {fileID: 0}
    - target: {fileID: 5340028944798678958, guid: ed2860dd1cca70e4789bbd4cd83158e6, type: 3}
      propertyPath: m_Name
      value: building_largeA_east Variant
      objectReference: {fileID: 0}
    - target: {fileID: 7398498406043812559, guid: ed2860dd1cca70e4789bbd4cd83158e6, type: 3}
      propertyPath: m_LocalPosition.x
      value: 0.0000037550926
      objectReference: {fileID: 0}
    - target: {fileID: 7398498406043812559, guid: ed2860dd1cca70e4789bbd4cd83158e6, type: 3}
      propertyPath: m_LocalPosition.z
      value: -1.25
      objectReference: {fileID: 0}
    - target: {fileID: 8269596697070145500, guid: ed2860dd1cca70e4789bbd4cd83158e6, type: 3}
      propertyPath: m_LocalPosition.x
      value: 1.0000038
      objectReference: {fileID: 0}
    - target: {fileID: 8269596697070145500, guid: ed2860dd1cca70e4789bbd4cd83158e6, type: 3}
      propertyPath: m_LocalPosition.z
      value: -0.75
      objectReference: {fileID: 0}
    m_RemovedComponents: []
  m_SourcePrefab: {fileID: 100100000, guid: ed2860dd1cca70e4789bbd4cd83158e6, type: 3}
