%YAML 1.1
%TAG !u! tag:unity3d.com,2011:
--- !u!1001 &7715953268725120136
PrefabInstance:
  m_ObjectHideFlags: 0
  serializedVersion: 2
  m_Modification:
    m_TransformParent: {fileID: 0}
    m_Modifications:
    - target: {fileID: 175011186629185041, guid: 1c02685f6ffe0a44a87923153bb55032, type: 3}
      propertyPath: m_LocalPosition.x
      value: -0.99999994
      objectReference: {fileID: 0}
    - target: {fileID: 175011186629185041, guid: 1c02685f6ffe0a44a87923153bb55032, type: 3}
      propertyPath: m_LocalPosition.z
      value: 0.0000029206276
      objectReference: {fileID: 0}
    - target: {fileID: 1558271348193851419, guid: 1c02685f6ffe0a44a87923153bb55032, type: 3}
      propertyPath: m_LocalPosition.x
      value: -1.16
      objectReference: {fileID: 0}
    - target: {fileID: 1558271348193851419, guid: 1c02685f6ffe0a44a87923153bb55032, type: 3}
      propertyPath: m_LocalPosition.z
      value: 0.03800292
      objectReference: {fileID: 0}
    - target: {fileID: 1607027004545301647, guid: 1c02685f6ffe0a44a87923153bb55032, type: 3}
      propertyPath: sizeX
      value: 3
      objectReference: {fileID: 0}
    - target: {fileID: 1607027004545301647, guid: 1c02685f6ffe0a44a87923153bb55032, type: 3}
      propertyPath: sizeY
      value: 2
      objectReference: {fileID: 0}
    - target: {fileID: 3317752668548251473, guid: 1c02685f6ffe0a44a87923153bb55032, type: 3}
      propertyPath: m_LocalPosition.x
      value: -0.99999994
      objectReference: {fileID: 0}
    - target: {fileID: 3317752668548251473, guid: 1c02685f6ffe0a44a87923153bb55032, type: 3}
      propertyPath: m_LocalPosition.z
      value: 0.0000029206276
      objectReference: {fileID: 0}
    - target: {fileID: 4457025854680376950, guid: 1c02685f6ffe0a44a87923153bb55032, type: 3}
      propertyPath: m_Name
      value: building_house04_west
      objectReference: {fileID: 0}
    - target: {fileID: 4457025854680376950, guid: 1c02685f6ffe0a44a87923153bb55032, type: 3}
      propertyPath: m_IsActive
      value: 1
      objectReference: {fileID: 0}
    - target: {fileID: 6112621153561608251, guid: 1c02685f6ffe0a44a87923153bb55032, type: 3}
      propertyPath: m_LocalPosition.x
      value: -1
      objectReference: {fileID: 0}
    - target: {fileID: 6112621153561608251, guid: 1c02685f6ffe0a44a87923153bb55032, type: 3}
      propertyPath: m_LocalPosition.z
      value: 0.0000029206276
      objectReference: {fileID: 0}
    - target: {fileID: 6547901765388409080, guid: 1c02685f6ffe0a44a87923153bb55032, type: 3}
      propertyPath: m_RootOrder
      value: 0
      objectReference: {fileID: 0}
    - target: {fileID: 6547901765388409080, guid: 1c02685f6ffe0a44a87923153bb55032, type: 3}
      propertyPath: m_LocalPosition.x
      value: 0
      objectReference: {fileID: 0}
    - target: {fileID: 6547901765388409080, guid: 1c02685f6ffe0a44a87923153bb55032, type: 3}
      propertyPath: m_LocalPosition.y
      value: 0
      objectReference: {fileID: 0}
    - target: {fileID: 6547901765388409080, guid: 1c02685f6ffe0a44a87923153bb55032, type: 3}
      propertyPath: m_LocalPosition.z
      value: 0
      objectReference: {fileID: 0}
    - target: {fileID: 6547901765388409080, guid: 1c02685f6ffe0a44a87923153bb55032, type: 3}
      propertyPath: m_LocalRotation.w
      value: 0.70710784
      objectReference: {fileID: 0}
    - target: {fileID: 6547901765388409080, guid: 1c02685f6ffe0a44a87923153bb55032, type: 3}
      propertyPath: m_LocalRotation.x
      value: -0
      objectReference: {fileID: 0}
    - target: {fileID: 6547901765388409080, guid: 1c02685f6ffe0a44a87923153bb55032, type: 3}
      propertyPath: m_LocalRotation.y
      value: 0.70710576
      objectReference: {fileID: 0}
    - target: {fileID: 6547901765388409080, guid: 1c02685f6ffe0a44a87923153bb55032, type: 3}
      propertyPath: m_LocalRotation.z
      value: -0
      objectReference: {fileID: 0}
    - target: {fileID: 6547901765388409080, guid: 1c02685f6ffe0a44a87923153bb55032, type: 3}
      propertyPath: m_LocalEulerAnglesHint.x
      value: 0
      objectReference: {fileID: 0}
    - target: {fileID: 6547901765388409080, guid: 1c02685f6ffe0a44a87923153bb55032, type: 3}
      propertyPath: m_LocalEulerAnglesHint.y
      value: 90
      objectReference: {fileID: 0}
    - target: {fileID: 6547901765388409080, guid: 1c02685f6ffe0a44a87923153bb55032, type: 3}
      propertyPath: m_LocalEulerAnglesHint.z
      value: 0
      objectReference: {fileID: 0}
    m_RemovedComponents: []
  m_SourcePrefab: {fileID: 100100000, guid: 1c02685f6ffe0a44a87923153bb55032, type: 3}
