%YAML 1.1
%TAG !u! tag:unity3d.com,2011:
--- !u!1001 &4217427957839882082
PrefabInstance:
  m_ObjectHideFlags: 0
  serializedVersion: 2
  m_Modification:
    m_TransformParent: {fileID: 0}
    m_Modifications:
    - target: {fileID: 387521725233622278, guid: b5b698e1a1861d8408cbadb0f7b42230, type: 3}
      propertyPath: sizeX
      value: 2
      objectReference: {fileID: 0}
    - target: {fileID: 387521725233622278, guid: b5b698e1a1861d8408cbadb0f7b42230, type: 3}
      propertyPath: sizeY
      value: 3
      objectReference: {fileID: 0}
    - target: {fileID: 542991094486738721, guid: b5b698e1a1861d8408cbadb0f7b42230, type: 3}
      propertyPath: m_LocalPosition.x
      value: -1.25
      objectReference: {fileID: 0}
    - target: {fileID: 542991094486738721, guid: b5b698e1a1861d8408cbadb0f7b42230, type: 3}
      propertyPath: m_LocalPosition.z
      value: 0.50000584
      objectReference: {fileID: 0}
    - target: {fileID: 2088896810082897186, guid: b5b698e1a1861d8408cbadb0f7b42230, type: 3}
      propertyPath: m_RootOrder
      value: 0
      objectReference: {fileID: 0}
    - target: {fileID: 2088896810082897186, guid: b5b698e1a1861d8408cbadb0f7b42230, type: 3}
      propertyPath: m_LocalPosition.x
      value: 0
      objectReference: {fileID: 0}
    - target: {fileID: 2088896810082897186, guid: b5b698e1a1861d8408cbadb0f7b42230, type: 3}
      propertyPath: m_LocalPosition.y
      value: 0
      objectReference: {fileID: 0}
    - target: {fileID: 2088896810082897186, guid: b5b698e1a1861d8408cbadb0f7b42230, type: 3}
      propertyPath: m_LocalPosition.z
      value: 0
      objectReference: {fileID: 0}
    - target: {fileID: 2088896810082897186, guid: b5b698e1a1861d8408cbadb0f7b42230, type: 3}
      propertyPath: m_LocalRotation.w
      value: 0.70710784
      objectReference: {fileID: 0}
    - target: {fileID: 2088896810082897186, guid: b5b698e1a1861d8408cbadb0f7b42230, type: 3}
      propertyPath: m_LocalRotation.x
      value: -0
      objectReference: {fileID: 0}
    - target: {fileID: 2088896810082897186, guid: b5b698e1a1861d8408cbadb0f7b42230, type: 3}
      propertyPath: m_LocalRotation.y
      value: 0.70710576
      objectReference: {fileID: 0}
    - target: {fileID: 2088896810082897186, guid: b5b698e1a1861d8408cbadb0f7b42230, type: 3}
      propertyPath: m_LocalRotation.z
      value: -0
      objectReference: {fileID: 0}
    - target: {fileID: 2088896810082897186, guid: b5b698e1a1861d8408cbadb0f7b42230, type: 3}
      propertyPath: m_LocalEulerAnglesHint.x
      value: 0
      objectReference: {fileID: 0}
    - target: {fileID: 2088896810082897186, guid: b5b698e1a1861d8408cbadb0f7b42230, type: 3}
      propertyPath: m_LocalEulerAnglesHint.y
      value: 90
      objectReference: {fileID: 0}
    - target: {fileID: 2088896810082897186, guid: b5b698e1a1861d8408cbadb0f7b42230, type: 3}
      propertyPath: m_LocalEulerAnglesHint.z
      value: 0
      objectReference: {fileID: 0}
    - target: {fileID: 5088632512009853693, guid: b5b698e1a1861d8408cbadb0f7b42230, type: 3}
      propertyPath: m_LocalPosition.x
      value: -2
      objectReference: {fileID: 0}
    - target: {fileID: 5088632512009853693, guid: b5b698e1a1861d8408cbadb0f7b42230, type: 3}
      propertyPath: m_LocalPosition.z
      value: 0.000005841255
      objectReference: {fileID: 0}
    - target: {fileID: 7319757503076665085, guid: b5b698e1a1861d8408cbadb0f7b42230, type: 3}
      propertyPath: m_Name
      value: building_largeG_west
      objectReference: {fileID: 0}
    m_RemovedComponents: []
  m_SourcePrefab: {fileID: 100100000, guid: b5b698e1a1861d8408cbadb0f7b42230, type: 3}
