%YAML 1.1
%TAG !u! tag:unity3d.com,2011:
--- !u!1001 &5634970222047466338
PrefabInstance:
  m_ObjectHideFlags: 0
  serializedVersion: 2
  m_Modification:
    m_TransformParent: {fileID: 0}
    m_Modifications:
    - target: {fileID: 1884413130291506866, guid: 8f1a64bab298f1642afa9c3a5b6e5e61, type: 3}
      propertyPath: m_LocalPosition.x
      value: -0.99999994
      objectReference: {fileID: 0}
    - target: {fileID: 1884413130291506866, guid: 8f1a64bab298f1642afa9c3a5b6e5e61, type: 3}
      propertyPath: m_LocalPosition.z
      value: 0.0000029206276
      objectReference: {fileID: 0}
    - target: {fileID: 3753499766062840832, guid: 8f1a64bab298f1642afa9c3a5b6e5e61, type: 3}
      propertyPath: m_RootOrder
      value: 0
      objectReference: {fileID: 0}
    - target: {fileID: 3753499766062840832, guid: 8f1a64bab298f1642afa9c3a5b6e5e61, type: 3}
      propertyPath: m_LocalPosition.x
      value: 0
      objectReference: {fileID: 0}
    - target: {fileID: 3753499766062840832, guid: 8f1a64bab298f1642afa9c3a5b6e5e61, type: 3}
      propertyPath: m_LocalPosition.y
      value: 0
      objectReference: {fileID: 0}
    - target: {fileID: 3753499766062840832, guid: 8f1a64bab298f1642afa9c3a5b6e5e61, type: 3}
      propertyPath: m_LocalPosition.z
      value: 0
      objectReference: {fileID: 0}
    - target: {fileID: 3753499766062840832, guid: 8f1a64bab298f1642afa9c3a5b6e5e61, type: 3}
      propertyPath: m_LocalRotation.w
      value: 0.70710784
      objectReference: {fileID: 0}
    - target: {fileID: 3753499766062840832, guid: 8f1a64bab298f1642afa9c3a5b6e5e61, type: 3}
      propertyPath: m_LocalRotation.x
      value: -0
      objectReference: {fileID: 0}
    - target: {fileID: 3753499766062840832, guid: 8f1a64bab298f1642afa9c3a5b6e5e61, type: 3}
      propertyPath: m_LocalRotation.y
      value: 0.70710576
      objectReference: {fileID: 0}
    - target: {fileID: 3753499766062840832, guid: 8f1a64bab298f1642afa9c3a5b6e5e61, type: 3}
      propertyPath: m_LocalRotation.z
      value: -0
      objectReference: {fileID: 0}
    - target: {fileID: 3753499766062840832, guid: 8f1a64bab298f1642afa9c3a5b6e5e61, type: 3}
      propertyPath: m_LocalEulerAnglesHint.x
      value: 0
      objectReference: {fileID: 0}
    - target: {fileID: 3753499766062840832, guid: 8f1a64bab298f1642afa9c3a5b6e5e61, type: 3}
      propertyPath: m_LocalEulerAnglesHint.y
      value: 90
      objectReference: {fileID: 0}
    - target: {fileID: 3753499766062840832, guid: 8f1a64bab298f1642afa9c3a5b6e5e61, type: 3}
      propertyPath: m_LocalEulerAnglesHint.z
      value: 0
      objectReference: {fileID: 0}
    - target: {fileID: 4649754242408128715, guid: 8f1a64bab298f1642afa9c3a5b6e5e61, type: 3}
      propertyPath: m_LocalPosition.x
      value: -0.47999996
      objectReference: {fileID: 0}
    - target: {fileID: 4649754242408128715, guid: 8f1a64bab298f1642afa9c3a5b6e5e61, type: 3}
      propertyPath: m_LocalPosition.z
      value: 0.47000292
      objectReference: {fileID: 0}
    - target: {fileID: 6134042481230199171, guid: 8f1a64bab298f1642afa9c3a5b6e5e61, type: 3}
      propertyPath: m_Name
      value: building_house12_west
      objectReference: {fileID: 0}
    - target: {fileID: 6134042481230199171, guid: 8f1a64bab298f1642afa9c3a5b6e5e61, type: 3}
      propertyPath: m_IsActive
      value: 1
      objectReference: {fileID: 0}
    - target: {fileID: 6468445186646766987, guid: 8f1a64bab298f1642afa9c3a5b6e5e61, type: 3}
      propertyPath: sizeX
      value: 3
      objectReference: {fileID: 0}
    - target: {fileID: 6468445186646766987, guid: 8f1a64bab298f1642afa9c3a5b6e5e61, type: 3}
      propertyPath: sizeY
      value: 2
      objectReference: {fileID: 0}
    - target: {fileID: 7356931546233433287, guid: 8f1a64bab298f1642afa9c3a5b6e5e61, type: 3}
      propertyPath: m_LocalPosition.x
      value: -0.99999994
      objectReference: {fileID: 0}
    - target: {fileID: 7356931546233433287, guid: 8f1a64bab298f1642afa9c3a5b6e5e61, type: 3}
      propertyPath: m_LocalPosition.z
      value: 0.0000029206276
      objectReference: {fileID: 0}
    - target: {fileID: 7535765852739540000, guid: 8f1a64bab298f1642afa9c3a5b6e5e61, type: 3}
      propertyPath: m_LocalPosition.x
      value: -0.99999994
      objectReference: {fileID: 0}
    - target: {fileID: 7535765852739540000, guid: 8f1a64bab298f1642afa9c3a5b6e5e61, type: 3}
      propertyPath: m_LocalPosition.z
      value: 0.0000029206276
      objectReference: {fileID: 0}
    m_RemovedComponents: []
  m_SourcePrefab: {fileID: 100100000, guid: 8f1a64bab298f1642afa9c3a5b6e5e61, type: 3}
