%YAML 1.1
%TAG !u! tag:unity3d.com,2011:
--- !u!1001 &3028683431671842804
PrefabInstance:
  m_ObjectHideFlags: 0
  serializedVersion: 2
  m_Modification:
    m_TransformParent: {fileID: 0}
    m_Modifications:
    - target: {fileID: 1223313883341106402, guid: c9183467028c2a44a8af7e359a27262f, type: 3}
      propertyPath: m_RootOrder
      value: 0
      objectReference: {fileID: 0}
    - target: {fileID: 1223313883341106402, guid: c9183467028c2a44a8af7e359a27262f, type: 3}
      propertyPath: m_LocalPosition.x
      value: 0
      objectReference: {fileID: 0}
    - target: {fileID: 1223313883341106402, guid: c9183467028c2a44a8af7e359a27262f, type: 3}
      propertyPath: m_LocalPosition.y
      value: 0
      objectReference: {fileID: 0}
    - target: {fileID: 1223313883341106402, guid: c9183467028c2a44a8af7e359a27262f, type: 3}
      propertyPath: m_LocalPosition.z
      value: 0
      objectReference: {fileID: 0}
    - target: {fileID: 1223313883341106402, guid: c9183467028c2a44a8af7e359a27262f, type: 3}
      propertyPath: m_LocalRotation.w
      value: 0.70710784
      objectReference: {fileID: 0}
    - target: {fileID: 1223313883341106402, guid: c9183467028c2a44a8af7e359a27262f, type: 3}
      propertyPath: m_LocalRotation.x
      value: -0
      objectReference: {fileID: 0}
    - target: {fileID: 1223313883341106402, guid: c9183467028c2a44a8af7e359a27262f, type: 3}
      propertyPath: m_LocalRotation.y
      value: 0.70710576
      objectReference: {fileID: 0}
    - target: {fileID: 1223313883341106402, guid: c9183467028c2a44a8af7e359a27262f, type: 3}
      propertyPath: m_LocalRotation.z
      value: -0
      objectReference: {fileID: 0}
    - target: {fileID: 1223313883341106402, guid: c9183467028c2a44a8af7e359a27262f, type: 3}
      propertyPath: m_LocalEulerAnglesHint.x
      value: 0
      objectReference: {fileID: 0}
    - target: {fileID: 1223313883341106402, guid: c9183467028c2a44a8af7e359a27262f, type: 3}
      propertyPath: m_LocalEulerAnglesHint.y
      value: 90
      objectReference: {fileID: 0}
    - target: {fileID: 1223313883341106402, guid: c9183467028c2a44a8af7e359a27262f, type: 3}
      propertyPath: m_LocalEulerAnglesHint.z
      value: 0
      objectReference: {fileID: 0}
    - target: {fileID: 1815132586263673117, guid: c9183467028c2a44a8af7e359a27262f, type: 3}
      propertyPath: m_LocalPosition.x
      value: -0.99999994
      objectReference: {fileID: 0}
    - target: {fileID: 1815132586263673117, guid: c9183467028c2a44a8af7e359a27262f, type: 3}
      propertyPath: m_LocalPosition.z
      value: 0.0000029206276
      objectReference: {fileID: 0}
    - target: {fileID: 2809879242153100524, guid: c9183467028c2a44a8af7e359a27262f, type: 3}
      propertyPath: m_Name
      value: building_skyscraperA_west
      objectReference: {fileID: 0}
    - target: {fileID: 7050157325217524643, guid: c9183467028c2a44a8af7e359a27262f, type: 3}
      propertyPath: m_LocalPosition.x
      value: -0.49999994
      objectReference: {fileID: 0}
    - target: {fileID: 7050157325217524643, guid: c9183467028c2a44a8af7e359a27262f, type: 3}
      propertyPath: m_LocalPosition.z
      value: 0.5000029
      objectReference: {fileID: 0}
    m_RemovedComponents: []
  m_SourcePrefab: {fileID: 100100000, guid: c9183467028c2a44a8af7e359a27262f, type: 3}
