%YAML 1.1
%TAG !u! tag:unity3d.com,2011:
--- !u!1001 &6563030348347000051
PrefabInstance:
  m_ObjectHideFlags: 0
  serializedVersion: 2
  m_Modification:
    m_TransformParent: {fileID: 0}
    m_Modifications:
    - target: {fileID: 940781158615628337, guid: dd6a837a102860a40b5b9d50f639dfc1, type: 3}
      propertyPath: m_RootOrder
      value: 0
      objectReference: {fileID: 0}
    - target: {fileID: 940781158615628337, guid: dd6a837a102860a40b5b9d50f639dfc1, type: 3}
      propertyPath: m_LocalPosition.x
      value: 0
      objectReference: {fileID: 0}
    - target: {fileID: 940781158615628337, guid: dd6a837a102860a40b5b9d50f639dfc1, type: 3}
      propertyPath: m_LocalPosition.y
      value: 0
      objectReference: {fileID: 0}
    - target: {fileID: 940781158615628337, guid: dd6a837a102860a40b5b9d50f639dfc1, type: 3}
      propertyPath: m_LocalPosition.z
      value: 0
      objectReference: {fileID: 0}
    - target: {fileID: 940781158615628337, guid: dd6a837a102860a40b5b9d50f639dfc1, type: 3}
      propertyPath: m_LocalRotation.w
      value: 0.70710784
      objectReference: {fileID: 0}
    - target: {fileID: 940781158615628337, guid: dd6a837a102860a40b5b9d50f639dfc1, type: 3}
      propertyPath: m_LocalRotation.x
      value: -0
      objectReference: {fileID: 0}
    - target: {fileID: 940781158615628337, guid: dd6a837a102860a40b5b9d50f639dfc1, type: 3}
      propertyPath: m_LocalRotation.y
      value: 0.70710576
      objectReference: {fileID: 0}
    - target: {fileID: 940781158615628337, guid: dd6a837a102860a40b5b9d50f639dfc1, type: 3}
      propertyPath: m_LocalRotation.z
      value: -0
      objectReference: {fileID: 0}
    - target: {fileID: 940781158615628337, guid: dd6a837a102860a40b5b9d50f639dfc1, type: 3}
      propertyPath: m_LocalEulerAnglesHint.x
      value: 0
      objectReference: {fileID: 0}
    - target: {fileID: 940781158615628337, guid: dd6a837a102860a40b5b9d50f639dfc1, type: 3}
      propertyPath: m_LocalEulerAnglesHint.y
      value: 90
      objectReference: {fileID: 0}
    - target: {fileID: 940781158615628337, guid: dd6a837a102860a40b5b9d50f639dfc1, type: 3}
      propertyPath: m_LocalEulerAnglesHint.z
      value: 0
      objectReference: {fileID: 0}
    - target: {fileID: 5195073617276898567, guid: dd6a837a102860a40b5b9d50f639dfc1, type: 3}
      propertyPath: m_LocalPosition.x
      value: -0.49999994
      objectReference: {fileID: 0}
    - target: {fileID: 5195073617276898567, guid: dd6a837a102860a40b5b9d50f639dfc1, type: 3}
      propertyPath: m_LocalPosition.z
      value: 0.5000029
      objectReference: {fileID: 0}
    - target: {fileID: 5320433952842636447, guid: dd6a837a102860a40b5b9d50f639dfc1, type: 3}
      propertyPath: m_LocalPosition.x
      value: -0.99999994
      objectReference: {fileID: 0}
    - target: {fileID: 5320433952842636447, guid: dd6a837a102860a40b5b9d50f639dfc1, type: 3}
      propertyPath: m_LocalPosition.z
      value: 0.0000029206276
      objectReference: {fileID: 0}
    - target: {fileID: 5333830206487897187, guid: dd6a837a102860a40b5b9d50f639dfc1, type: 3}
      propertyPath: m_Name
      value: building_largeD_west
      objectReference: {fileID: 0}
    m_RemovedComponents: []
  m_SourcePrefab: {fileID: 100100000, guid: dd6a837a102860a40b5b9d50f639dfc1, type: 3}
