%YAML 1.1
%TAG !u! tag:unity3d.com,2011:
--- !u!1001 &5009481283998616804
PrefabInstance:
  m_ObjectHideFlags: 0
  serializedVersion: 2
  m_Modification:
    m_TransformParent: {fileID: 0}
    m_Modifications:
    - target: {fileID: 1173378573010861357, guid: 8ee0131ad03735043ba6c5bedf31579b, type: 3}
      propertyPath: m_RootOrder
      value: 0
      objectReference: {fileID: 0}
    - target: {fileID: 1173378573010861357, guid: 8ee0131ad03735043ba6c5bedf31579b, type: 3}
      propertyPath: m_LocalPosition.x
      value: 0
      objectReference: {fileID: 0}
    - target: {fileID: 1173378573010861357, guid: 8ee0131ad03735043ba6c5bedf31579b, type: 3}
      propertyPath: m_LocalPosition.y
      value: 0
      objectReference: {fileID: 0}
    - target: {fileID: 1173378573010861357, guid: 8ee0131ad03735043ba6c5bedf31579b, type: 3}
      propertyPath: m_LocalPosition.z
      value: 0
      objectReference: {fileID: 0}
    - target: {fileID: 1173378573010861357, guid: 8ee0131ad03735043ba6c5bedf31579b, type: 3}
      propertyPath: m_LocalRotation.w
      value: 0.70710784
      objectReference: {fileID: 0}
    - target: {fileID: 1173378573010861357, guid: 8ee0131ad03735043ba6c5bedf31579b, type: 3}
      propertyPath: m_LocalRotation.x
      value: -0
      objectReference: {fileID: 0}
    - target: {fileID: 1173378573010861357, guid: 8ee0131ad03735043ba6c5bedf31579b, type: 3}
      propertyPath: m_LocalRotation.y
      value: 0.70710576
      objectReference: {fileID: 0}
    - target: {fileID: 1173378573010861357, guid: 8ee0131ad03735043ba6c5bedf31579b, type: 3}
      propertyPath: m_LocalRotation.z
      value: -0
      objectReference: {fileID: 0}
    - target: {fileID: 1173378573010861357, guid: 8ee0131ad03735043ba6c5bedf31579b, type: 3}
      propertyPath: m_LocalEulerAnglesHint.x
      value: 0
      objectReference: {fileID: 0}
    - target: {fileID: 1173378573010861357, guid: 8ee0131ad03735043ba6c5bedf31579b, type: 3}
      propertyPath: m_LocalEulerAnglesHint.y
      value: 90
      objectReference: {fileID: 0}
    - target: {fileID: 1173378573010861357, guid: 8ee0131ad03735043ba6c5bedf31579b, type: 3}
      propertyPath: m_LocalEulerAnglesHint.z
      value: 0
      objectReference: {fileID: 0}
    - target: {fileID: 2732715697208754722, guid: 8ee0131ad03735043ba6c5bedf31579b, type: 3}
      propertyPath: m_LocalPosition.x
      value: -1
      objectReference: {fileID: 0}
    - target: {fileID: 2732715697208754722, guid: 8ee0131ad03735043ba6c5bedf31579b, type: 3}
      propertyPath: m_LocalPosition.z
      value: 0.0000029206276
      objectReference: {fileID: 0}
    - target: {fileID: 4133600785493914842, guid: 8ee0131ad03735043ba6c5bedf31579b, type: 3}
      propertyPath: m_Name
      value: building_house03_west Variant
      objectReference: {fileID: 0}
    - target: {fileID: 5378114216420649501, guid: 8ee0131ad03735043ba6c5bedf31579b, type: 3}
      propertyPath: m_LocalPosition.x
      value: -0.49999994
      objectReference: {fileID: 0}
    - target: {fileID: 5378114216420649501, guid: 8ee0131ad03735043ba6c5bedf31579b, type: 3}
      propertyPath: m_LocalPosition.z
      value: 0.5000029
      objectReference: {fileID: 0}
    - target: {fileID: 6090088975633154678, guid: 8ee0131ad03735043ba6c5bedf31579b, type: 3}
      propertyPath: sizeX
      value: 3
      objectReference: {fileID: 0}
    - target: {fileID: 6090088975633154678, guid: 8ee0131ad03735043ba6c5bedf31579b, type: 3}
      propertyPath: sizeY
      value: 2
      objectReference: {fileID: 0}
    - target: {fileID: 7113634730527032330, guid: 8ee0131ad03735043ba6c5bedf31579b, type: 3}
      propertyPath: m_LocalPosition.x
      value: -0.99999994
      objectReference: {fileID: 0}
    - target: {fileID: 7113634730527032330, guid: 8ee0131ad03735043ba6c5bedf31579b, type: 3}
      propertyPath: m_LocalPosition.z
      value: 0.0000029206276
      objectReference: {fileID: 0}
    - target: {fileID: 7379823978911136860, guid: 8ee0131ad03735043ba6c5bedf31579b, type: 3}
      propertyPath: m_LocalPosition.x
      value: -0.99999994
      objectReference: {fileID: 0}
    - target: {fileID: 7379823978911136860, guid: 8ee0131ad03735043ba6c5bedf31579b, type: 3}
      propertyPath: m_LocalPosition.z
      value: 0.0000029206276
      objectReference: {fileID: 0}
    m_RemovedComponents: []
  m_SourcePrefab: {fileID: 100100000, guid: 8ee0131ad03735043ba6c5bedf31579b, type: 3}
