%YAML 1.1
%TAG !u! tag:unity3d.com,2011:
--- !u!1001 &3641387923389971710
PrefabInstance:
  m_ObjectHideFlags: 0
  serializedVersion: 2
  m_Modification:
    m_TransformParent: {fileID: 0}
    m_Modifications:
    - target: {fileID: 1223313883341106402, guid: c9183467028c2a44a8af7e359a27262f, type: 3}
      propertyPath: m_RootOrder
      value: 0
      objectReference: {fileID: 0}
    - target: {fileID: 1223313883341106402, guid: c9183467028c2a44a8af7e359a27262f, type: 3}
      propertyPath: m_LocalPosition.x
      value: 0
      objectReference: {fileID: 0}
    - target: {fileID: 1223313883341106402, guid: c9183467028c2a44a8af7e359a27262f, type: 3}
      propertyPath: m_LocalPosition.y
      value: 0
      objectReference: {fileID: 0}
    - target: {fileID: 1223313883341106402, guid: c9183467028c2a44a8af7e359a27262f, type: 3}
      propertyPath: m_LocalPosition.z
      value: 0
      objectReference: {fileID: 0}
    - target: {fileID: 1223313883341106402, guid: c9183467028c2a44a8af7e359a27262f, type: 3}
      propertyPath: m_LocalRotation.w
      value: 0.0000029504295
      objectReference: {fileID: 0}
    - target: {fileID: 1223313883341106402, guid: c9183467028c2a44a8af7e359a27262f, type: 3}
      propertyPath: m_LocalRotation.x
      value: -0
      objectReference: {fileID: 0}
    - target: {fileID: 1223313883341106402, guid: c9183467028c2a44a8af7e359a27262f, type: 3}
      propertyPath: m_LocalRotation.y
      value: 1
      objectReference: {fileID: 0}
    - target: {fileID: 1223313883341106402, guid: c9183467028c2a44a8af7e359a27262f, type: 3}
      propertyPath: m_LocalRotation.z
      value: -0
      objectReference: {fileID: 0}
    - target: {fileID: 1223313883341106402, guid: c9183467028c2a44a8af7e359a27262f, type: 3}
      propertyPath: m_LocalEulerAnglesHint.x
      value: 0
      objectReference: {fileID: 0}
    - target: {fileID: 1223313883341106402, guid: c9183467028c2a44a8af7e359a27262f, type: 3}
      propertyPath: m_LocalEulerAnglesHint.y
      value: 180
      objectReference: {fileID: 0}
    - target: {fileID: 1223313883341106402, guid: c9183467028c2a44a8af7e359a27262f, type: 3}
      propertyPath: m_LocalEulerAnglesHint.z
      value: 0
      objectReference: {fileID: 0}
    - target: {fileID: 1815132586263673117, guid: c9183467028c2a44a8af7e359a27262f, type: 3}
      propertyPath: m_LocalPosition.x
      value: -1.0000058
      objectReference: {fileID: 0}
    - target: {fileID: 1815132586263673117, guid: c9183467028c2a44a8af7e359a27262f, type: 3}
      propertyPath: m_LocalPosition.z
      value: -0.99999416
      objectReference: {fileID: 0}
    - target: {fileID: 2809879242153100524, guid: c9183467028c2a44a8af7e359a27262f, type: 3}
      propertyPath: m_Name
      value: building_skyscraperA_north
      objectReference: {fileID: 0}
    - target: {fileID: 7050157325217524643, guid: c9183467028c2a44a8af7e359a27262f, type: 3}
      propertyPath: m_LocalPosition.x
      value: -0.50000584
      objectReference: {fileID: 0}
    - target: {fileID: 7050157325217524643, guid: c9183467028c2a44a8af7e359a27262f, type: 3}
      propertyPath: m_LocalPosition.z
      value: -0.49999416
      objectReference: {fileID: 0}
    m_RemovedComponents: []
  m_SourcePrefab: {fileID: 100100000, guid: c9183467028c2a44a8af7e359a27262f, type: 3}
