%YAML 1.1
%TAG !u! tag:unity3d.com,2011:
--- !u!1001 &3806646767403786368
PrefabInstance:
  m_ObjectHideFlags: 0
  serializedVersion: 2
  m_Modification:
    m_TransformParent: {fileID: 0}
    m_Modifications:
    - target: {fileID: 868381626409595687, guid: 87b61c8409c299f4dab7a5b2bbfdf706, type: 3}
      propertyPath: m_Name
      value: building_house15_north
      objectReference: {fileID: 0}
    - target: {fileID: 2604056832587306846, guid: 87b61c8409c299f4dab7a5b2bbfdf706, type: 3}
      propertyPath: m_RootOrder
      value: 0
      objectReference: {fileID: 0}
    - target: {fileID: 2604056832587306846, guid: 87b61c8409c299f4dab7a5b2bbfdf706, type: 3}
      propertyPath: m_LocalPosition.x
      value: 0
      objectReference: {fileID: 0}
    - target: {fileID: 2604056832587306846, guid: 87b61c8409c299f4dab7a5b2bbfdf706, type: 3}
      propertyPath: m_LocalPosition.y
      value: 0
      objectReference: {fileID: 0}
    - target: {fileID: 2604056832587306846, guid: 87b61c8409c299f4dab7a5b2bbfdf706, type: 3}
      propertyPath: m_LocalPosition.z
      value: 0
      objectReference: {fileID: 0}
    - target: {fileID: 2604056832587306846, guid: 87b61c8409c299f4dab7a5b2bbfdf706, type: 3}
      propertyPath: m_LocalRotation.w
      value: 0
      objectReference: {fileID: 0}
    - target: {fileID: 2604056832587306846, guid: 87b61c8409c299f4dab7a5b2bbfdf706, type: 3}
      propertyPath: m_LocalRotation.x
      value: 0
      objectReference: {fileID: 0}
    - target: {fileID: 2604056832587306846, guid: 87b61c8409c299f4dab7a5b2bbfdf706, type: 3}
      propertyPath: m_LocalRotation.y
      value: 1
      objectReference: {fileID: 0}
    - target: {fileID: 2604056832587306846, guid: 87b61c8409c299f4dab7a5b2bbfdf706, type: 3}
      propertyPath: m_LocalRotation.z
      value: 0
      objectReference: {fileID: 0}
    - target: {fileID: 2604056832587306846, guid: 87b61c8409c299f4dab7a5b2bbfdf706, type: 3}
      propertyPath: m_LocalEulerAnglesHint.x
      value: 0
      objectReference: {fileID: 0}
    - target: {fileID: 2604056832587306846, guid: 87b61c8409c299f4dab7a5b2bbfdf706, type: 3}
      propertyPath: m_LocalEulerAnglesHint.y
      value: 180
      objectReference: {fileID: 0}
    - target: {fileID: 2604056832587306846, guid: 87b61c8409c299f4dab7a5b2bbfdf706, type: 3}
      propertyPath: m_LocalEulerAnglesHint.z
      value: 0
      objectReference: {fileID: 0}
    m_RemovedComponents: []
  m_SourcePrefab: {fileID: 100100000, guid: 87b61c8409c299f4dab7a5b2bbfdf706, type: 3}
