%YAML 1.1
%TAG !u! tag:unity3d.com,2011:
--- !u!1001 &5708292899417502341
PrefabInstance:
  m_ObjectHideFlags: 0
  serializedVersion: 2
  m_Modification:
    m_TransformParent: {fileID: 0}
    m_Modifications:
    - target: {fileID: 640294174046813231, guid: c7c85bdcfbc3cc04990108bebb98121a, type: 3}
      propertyPath: m_RootOrder
      value: 0
      objectReference: {fileID: 0}
    - target: {fileID: 640294174046813231, guid: c7c85bdcfbc3cc04990108bebb98121a, type: 3}
      propertyPath: m_LocalPosition.x
      value: 0
      objectReference: {fileID: 0}
    - target: {fileID: 640294174046813231, guid: c7c85bdcfbc3cc04990108bebb98121a, type: 3}
      propertyPath: m_LocalPosition.y
      value: 0
      objectReference: {fileID: 0}
    - target: {fileID: 640294174046813231, guid: c7c85bdcfbc3cc04990108bebb98121a, type: 3}
      propertyPath: m_LocalPosition.z
      value: 0
      objectReference: {fileID: 0}
    - target: {fileID: 640294174046813231, guid: c7c85bdcfbc3cc04990108bebb98121a, type: 3}
      propertyPath: m_LocalRotation.w
      value: -0.7071068
      objectReference: {fileID: 0}
    - target: {fileID: 640294174046813231, guid: c7c85bdcfbc3cc04990108bebb98121a, type: 3}
      propertyPath: m_LocalRotation.x
      value: 0
      objectReference: {fileID: 0}
    - target: {fileID: 640294174046813231, guid: c7c85bdcfbc3cc04990108bebb98121a, type: 3}
      propertyPath: m_LocalRotation.y
      value: 0.7071068
      objectReference: {fileID: 0}
    - target: {fileID: 640294174046813231, guid: c7c85bdcfbc3cc04990108bebb98121a, type: 3}
      propertyPath: m_LocalRotation.z
      value: -0
      objectReference: {fileID: 0}
    - target: {fileID: 640294174046813231, guid: c7c85bdcfbc3cc04990108bebb98121a, type: 3}
      propertyPath: m_LocalEulerAnglesHint.x
      value: 0
      objectReference: {fileID: 0}
    - target: {fileID: 640294174046813231, guid: c7c85bdcfbc3cc04990108bebb98121a, type: 3}
      propertyPath: m_LocalEulerAnglesHint.y
      value: 270
      objectReference: {fileID: 0}
    - target: {fileID: 640294174046813231, guid: c7c85bdcfbc3cc04990108bebb98121a, type: 3}
      propertyPath: m_LocalEulerAnglesHint.z
      value: 0
      objectReference: {fileID: 0}
    - target: {fileID: 3136339051946155421, guid: c7c85bdcfbc3cc04990108bebb98121a, type: 3}
      propertyPath: m_Name
      value: building_smallB_west
      objectReference: {fileID: 0}
    m_RemovedComponents: []
  m_SourcePrefab: {fileID: 100100000, guid: c7c85bdcfbc3cc04990108bebb98121a, type: 3}
