%YAML 1.1
%TAG !u! tag:unity3d.com,2011:
--- !u!1001 &4868478873336779234
PrefabInstance:
  m_ObjectHideFlags: 0
  serializedVersion: 2
  m_Modification:
    m_TransformParent: {fileID: 0}
    m_Modifications:
    - target: {fileID: 319768643479149202, guid: c93937653ffd49040bc9727f31912d49, type: 3}
      propertyPath: m_RootOrder
      value: 0
      objectReference: {fileID: 0}
    - target: {fileID: 319768643479149202, guid: c93937653ffd49040bc9727f31912d49, type: 3}
      propertyPath: m_LocalPosition.x
      value: 0
      objectReference: {fileID: 0}
    - target: {fileID: 319768643479149202, guid: c93937653ffd49040bc9727f31912d49, type: 3}
      propertyPath: m_LocalPosition.y
      value: 0
      objectReference: {fileID: 0}
    - target: {fileID: 319768643479149202, guid: c93937653ffd49040bc9727f31912d49, type: 3}
      propertyPath: m_LocalPosition.z
      value: 0
      objectReference: {fileID: 0}
    - target: {fileID: 319768643479149202, guid: c93937653ffd49040bc9727f31912d49, type: 3}
      propertyPath: m_LocalRotation.w
      value: 0.7071068
      objectReference: {fileID: 0}
    - target: {fileID: 319768643479149202, guid: c93937653ffd49040bc9727f31912d49, type: 3}
      propertyPath: m_LocalRotation.x
      value: 0
      objectReference: {fileID: 0}
    - target: {fileID: 319768643479149202, guid: c93937653ffd49040bc9727f31912d49, type: 3}
      propertyPath: m_LocalRotation.y
      value: 0.7071068
      objectReference: {fileID: 0}
    - target: {fileID: 319768643479149202, guid: c93937653ffd49040bc9727f31912d49, type: 3}
      propertyPath: m_LocalRotation.z
      value: 0
      objectReference: {fileID: 0}
    - target: {fileID: 319768643479149202, guid: c93937653ffd49040bc9727f31912d49, type: 3}
      propertyPath: m_LocalEulerAnglesHint.x
      value: 0
      objectReference: {fileID: 0}
    - target: {fileID: 319768643479149202, guid: c93937653ffd49040bc9727f31912d49, type: 3}
      propertyPath: m_LocalEulerAnglesHint.y
      value: 90
      objectReference: {fileID: 0}
    - target: {fileID: 319768643479149202, guid: c93937653ffd49040bc9727f31912d49, type: 3}
      propertyPath: m_LocalEulerAnglesHint.z
      value: 0
      objectReference: {fileID: 0}
    - target: {fileID: 1824231084076792838, guid: c93937653ffd49040bc9727f31912d49, type: 3}
      propertyPath: m_Name
      value: building_smallD_east
      objectReference: {fileID: 0}
    m_RemovedComponents: []
  m_SourcePrefab: {fileID: 100100000, guid: c93937653ffd49040bc9727f31912d49, type: 3}
