%YAML 1.1
%TAG !u! tag:unity3d.com,2011:
--- !u!1001 &3466471576297469272
PrefabInstance:
  m_ObjectHideFlags: 0
  serializedVersion: 2
  m_Modification:
    m_TransformParent: {fileID: 0}
    m_Modifications:
    - target: {fileID: 1266694162813996767, guid: f9246ade942e4d143861b801d2af797e, type: 3}
      propertyPath: m_LocalPosition.x
      value: -0.99999994
      objectReference: {fileID: 0}
    - target: {fileID: 1266694162813996767, guid: f9246ade942e4d143861b801d2af797e, type: 3}
      propertyPath: m_LocalPosition.z
      value: 0.0000029206276
      objectReference: {fileID: 0}
    - target: {fileID: 1969869076250481902, guid: f9246ade942e4d143861b801d2af797e, type: 3}
      propertyPath: m_LocalPosition.x
      value: -0.99999994
      objectReference: {fileID: 0}
    - target: {fileID: 1969869076250481902, guid: f9246ade942e4d143861b801d2af797e, type: 3}
      propertyPath: m_LocalPosition.z
      value: 0.0000029206276
      objectReference: {fileID: 0}
    - target: {fileID: 2742119725646141803, guid: f9246ade942e4d143861b801d2af797e, type: 3}
      propertyPath: m_Name
      value: building_house18_west
      objectReference: {fileID: 0}
    - target: {fileID: 2742119725646141803, guid: f9246ade942e4d143861b801d2af797e, type: 3}
      propertyPath: m_IsActive
      value: 1
      objectReference: {fileID: 0}
    - target: {fileID: 4548938915846951578, guid: f9246ade942e4d143861b801d2af797e, type: 3}
      propertyPath: sizeX
      value: 3
      objectReference: {fileID: 0}
    - target: {fileID: 4548938915846951578, guid: f9246ade942e4d143861b801d2af797e, type: 3}
      propertyPath: sizeY
      value: 2
      objectReference: {fileID: 0}
    - target: {fileID: 4684140032995703643, guid: f9246ade942e4d143861b801d2af797e, type: 3}
      propertyPath: m_LocalPosition.x
      value: -0.49999994
      objectReference: {fileID: 0}
    - target: {fileID: 4684140032995703643, guid: f9246ade942e4d143861b801d2af797e, type: 3}
      propertyPath: m_LocalPosition.z
      value: 0.5000029
      objectReference: {fileID: 0}
    - target: {fileID: 5495089580806960656, guid: f9246ade942e4d143861b801d2af797e, type: 3}
      propertyPath: m_RootOrder
      value: 0
      objectReference: {fileID: 0}
    - target: {fileID: 5495089580806960656, guid: f9246ade942e4d143861b801d2af797e, type: 3}
      propertyPath: m_LocalPosition.x
      value: 0
      objectReference: {fileID: 0}
    - target: {fileID: 5495089580806960656, guid: f9246ade942e4d143861b801d2af797e, type: 3}
      propertyPath: m_LocalPosition.y
      value: 0
      objectReference: {fileID: 0}
    - target: {fileID: 5495089580806960656, guid: f9246ade942e4d143861b801d2af797e, type: 3}
      propertyPath: m_LocalPosition.z
      value: 0
      objectReference: {fileID: 0}
    - target: {fileID: 5495089580806960656, guid: f9246ade942e4d143861b801d2af797e, type: 3}
      propertyPath: m_LocalRotation.w
      value: 0.70710784
      objectReference: {fileID: 0}
    - target: {fileID: 5495089580806960656, guid: f9246ade942e4d143861b801d2af797e, type: 3}
      propertyPath: m_LocalRotation.x
      value: -0
      objectReference: {fileID: 0}
    - target: {fileID: 5495089580806960656, guid: f9246ade942e4d143861b801d2af797e, type: 3}
      propertyPath: m_LocalRotation.y
      value: 0.70710576
      objectReference: {fileID: 0}
    - target: {fileID: 5495089580806960656, guid: f9246ade942e4d143861b801d2af797e, type: 3}
      propertyPath: m_LocalRotation.z
      value: -0
      objectReference: {fileID: 0}
    - target: {fileID: 5495089580806960656, guid: f9246ade942e4d143861b801d2af797e, type: 3}
      propertyPath: m_LocalEulerAnglesHint.x
      value: 0
      objectReference: {fileID: 0}
    - target: {fileID: 5495089580806960656, guid: f9246ade942e4d143861b801d2af797e, type: 3}
      propertyPath: m_LocalEulerAnglesHint.y
      value: 90
      objectReference: {fileID: 0}
    - target: {fileID: 5495089580806960656, guid: f9246ade942e4d143861b801d2af797e, type: 3}
      propertyPath: m_LocalEulerAnglesHint.z
      value: 0
      objectReference: {fileID: 0}
    - target: {fileID: 8611248333884897693, guid: f9246ade942e4d143861b801d2af797e, type: 3}
      propertyPath: m_LocalPosition.x
      value: -0.99999994
      objectReference: {fileID: 0}
    - target: {fileID: 8611248333884897693, guid: f9246ade942e4d143861b801d2af797e, type: 3}
      propertyPath: m_LocalPosition.z
      value: 0.0000029206276
      objectReference: {fileID: 0}
    m_RemovedComponents: []
  m_SourcePrefab: {fileID: 100100000, guid: f9246ade942e4d143861b801d2af797e, type: 3}
