%YAML 1.1
%TAG !u! tag:unity3d.com,2011:
--- !u!1001 &2605308643989454822
PrefabInstance:
  m_ObjectHideFlags: 0
  serializedVersion: 2
  m_Modification:
    m_TransformParent: {fileID: 0}
    m_Modifications:
    - target: {fileID: 1603705800656616462, guid: 0c56ef1359e610f4f92d68af9465338d, type: 3}
      propertyPath: m_RootOrder
      value: 0
      objectReference: {fileID: 0}
    - target: {fileID: 1603705800656616462, guid: 0c56ef1359e610f4f92d68af9465338d, type: 3}
      propertyPath: m_LocalPosition.x
      value: 0
      objectReference: {fileID: 0}
    - target: {fileID: 1603705800656616462, guid: 0c56ef1359e610f4f92d68af9465338d, type: 3}
      propertyPath: m_LocalPosition.y
      value: 0
      objectReference: {fileID: 0}
    - target: {fileID: 1603705800656616462, guid: 0c56ef1359e610f4f92d68af9465338d, type: 3}
      propertyPath: m_LocalPosition.z
      value: 0
      objectReference: {fileID: 0}
    - target: {fileID: 1603705800656616462, guid: 0c56ef1359e610f4f92d68af9465338d, type: 3}
      propertyPath: m_LocalRotation.w
      value: 0.0000029504295
      objectReference: {fileID: 0}
    - target: {fileID: 1603705800656616462, guid: 0c56ef1359e610f4f92d68af9465338d, type: 3}
      propertyPath: m_LocalRotation.x
      value: -0
      objectReference: {fileID: 0}
    - target: {fileID: 1603705800656616462, guid: 0c56ef1359e610f4f92d68af9465338d, type: 3}
      propertyPath: m_LocalRotation.y
      value: 1
      objectReference: {fileID: 0}
    - target: {fileID: 1603705800656616462, guid: 0c56ef1359e610f4f92d68af9465338d, type: 3}
      propertyPath: m_LocalRotation.z
      value: -0
      objectReference: {fileID: 0}
    - target: {fileID: 1603705800656616462, guid: 0c56ef1359e610f4f92d68af9465338d, type: 3}
      propertyPath: m_LocalEulerAnglesHint.x
      value: 0
      objectReference: {fileID: 0}
    - target: {fileID: 1603705800656616462, guid: 0c56ef1359e610f4f92d68af9465338d, type: 3}
      propertyPath: m_LocalEulerAnglesHint.y
      value: 180
      objectReference: {fileID: 0}
    - target: {fileID: 1603705800656616462, guid: 0c56ef1359e610f4f92d68af9465338d, type: 3}
      propertyPath: m_LocalEulerAnglesHint.z
      value: 0
      objectReference: {fileID: 0}
    - target: {fileID: 4581977082182495924, guid: 0c56ef1359e610f4f92d68af9465338d, type: 3}
      propertyPath: m_Name
      value: building_skyscraperE_north
      objectReference: {fileID: 0}
    - target: {fileID: 6366980176938845798, guid: 0c56ef1359e610f4f92d68af9465338d, type: 3}
      propertyPath: m_LocalPosition.x
      value: -1.0000058
      objectReference: {fileID: 0}
    - target: {fileID: 6366980176938845798, guid: 0c56ef1359e610f4f92d68af9465338d, type: 3}
      propertyPath: m_LocalPosition.z
      value: -0.99999416
      objectReference: {fileID: 0}
    - target: {fileID: 8319443943754999602, guid: 0c56ef1359e610f4f92d68af9465338d, type: 3}
      propertyPath: m_LocalPosition.x
      value: -0.50000584
      objectReference: {fileID: 0}
    - target: {fileID: 8319443943754999602, guid: 0c56ef1359e610f4f92d68af9465338d, type: 3}
      propertyPath: m_LocalPosition.z
      value: -0.49999416
      objectReference: {fileID: 0}
    m_RemovedComponents: []
  m_SourcePrefab: {fileID: 100100000, guid: 0c56ef1359e610f4f92d68af9465338d, type: 3}
