%YAML 1.1
%TAG !u! tag:unity3d.com,2011:
--- !u!1001 &3825216146527062006
PrefabInstance:
  m_ObjectHideFlags: 0
  serializedVersion: 2
  m_Modification:
    m_TransformParent: {fileID: 0}
    m_Modifications:
    - target: {fileID: 1571253633592168393, guid: 73b97b9a3eef9b7499c9d48e26a9aa64, type: 3}
      propertyPath: m_Name
      value: building_skyscraperC_east
      objectReference: {fileID: 0}
    - target: {fileID: 3848679987572471067, guid: 73b97b9a3eef9b7499c9d48e26a9aa64, type: 3}
      propertyPath: m_LocalPosition.x
      value: 0.5000029
      objectReference: {fileID: 0}
    - target: {fileID: 3848679987572471067, guid: 73b97b9a3eef9b7499c9d48e26a9aa64, type: 3}
      propertyPath: m_LocalPosition.z
      value: -0.5
      objectReference: {fileID: 0}
    - target: {fileID: 4178938386614143002, guid: 73b97b9a3eef9b7499c9d48e26a9aa64, type: 3}
      propertyPath: m_LocalPosition.x
      value: 0.0000029206276
      objectReference: {fileID: 0}
    - target: {fileID: 4178938386614143002, guid: 73b97b9a3eef9b7499c9d48e26a9aa64, type: 3}
      propertyPath: m_LocalPosition.z
      value: -1
      objectReference: {fileID: 0}
    - target: {fileID: 6020394071499046011, guid: 73b97b9a3eef9b7499c9d48e26a9aa64, type: 3}
      propertyPath: m_RootOrder
      value: 0
      objectReference: {fileID: 0}
    - target: {fileID: 6020394071499046011, guid: 73b97b9a3eef9b7499c9d48e26a9aa64, type: 3}
      propertyPath: m_LocalPosition.x
      value: 0
      objectReference: {fileID: 0}
    - target: {fileID: 6020394071499046011, guid: 73b97b9a3eef9b7499c9d48e26a9aa64, type: 3}
      propertyPath: m_LocalPosition.y
      value: 0
      objectReference: {fileID: 0}
    - target: {fileID: 6020394071499046011, guid: 73b97b9a3eef9b7499c9d48e26a9aa64, type: 3}
      propertyPath: m_LocalPosition.z
      value: 0
      objectReference: {fileID: 0}
    - target: {fileID: 6020394071499046011, guid: 73b97b9a3eef9b7499c9d48e26a9aa64, type: 3}
      propertyPath: m_LocalRotation.w
      value: 0.70710784
      objectReference: {fileID: 0}
    - target: {fileID: 6020394071499046011, guid: 73b97b9a3eef9b7499c9d48e26a9aa64, type: 3}
      propertyPath: m_LocalRotation.x
      value: -0
      objectReference: {fileID: 0}
    - target: {fileID: 6020394071499046011, guid: 73b97b9a3eef9b7499c9d48e26a9aa64, type: 3}
      propertyPath: m_LocalRotation.y
      value: -0.70710576
      objectReference: {fileID: 0}
    - target: {fileID: 6020394071499046011, guid: 73b97b9a3eef9b7499c9d48e26a9aa64, type: 3}
      propertyPath: m_LocalRotation.z
      value: -0
      objectReference: {fileID: 0}
    - target: {fileID: 6020394071499046011, guid: 73b97b9a3eef9b7499c9d48e26a9aa64, type: 3}
      propertyPath: m_LocalEulerAnglesHint.x
      value: 0
      objectReference: {fileID: 0}
    - target: {fileID: 6020394071499046011, guid: 73b97b9a3eef9b7499c9d48e26a9aa64, type: 3}
      propertyPath: m_LocalEulerAnglesHint.y
      value: -90
      objectReference: {fileID: 0}
    - target: {fileID: 6020394071499046011, guid: 73b97b9a3eef9b7499c9d48e26a9aa64, type: 3}
      propertyPath: m_LocalEulerAnglesHint.z
      value: 0
      objectReference: {fileID: 0}
    m_RemovedComponents: []
  m_SourcePrefab: {fileID: 100100000, guid: 73b97b9a3eef9b7499c9d48e26a9aa64, type: 3}
