%YAML 1.1
%TAG !u! tag:unity3d.com,2011:
--- !u!1001 &6248918670907842375
PrefabInstance:
  m_ObjectHideFlags: 0
  serializedVersion: 2
  m_Modification:
    m_TransformParent: {fileID: 0}
    m_Modifications:
    - target: {fileID: 296464768028682248, guid: 90b45c5ab2f7857448ffce3fca39c2ef, type: 3}
      propertyPath: sizeX
      value: 3
      objectReference: {fileID: 0}
    - target: {fileID: 296464768028682248, guid: 90b45c5ab2f7857448ffce3fca39c2ef, type: 3}
      propertyPath: sizeY
      value: 2
      objectReference: {fileID: 0}
    - target: {fileID: 1903189428897995959, guid: 90b45c5ab2f7857448ffce3fca39c2ef, type: 3}
      propertyPath: m_RootOrder
      value: 0
      objectReference: {fileID: 0}
    - target: {fileID: 1903189428897995959, guid: 90b45c5ab2f7857448ffce3fca39c2ef, type: 3}
      propertyPath: m_LocalPosition.x
      value: 0
      objectReference: {fileID: 0}
    - target: {fileID: 1903189428897995959, guid: 90b45c5ab2f7857448ffce3fca39c2ef, type: 3}
      propertyPath: m_LocalPosition.y
      value: 0
      objectReference: {fileID: 0}
    - target: {fileID: 1903189428897995959, guid: 90b45c5ab2f7857448ffce3fca39c2ef, type: 3}
      propertyPath: m_LocalPosition.z
      value: 0
      objectReference: {fileID: 0}
    - target: {fileID: 1903189428897995959, guid: 90b45c5ab2f7857448ffce3fca39c2ef, type: 3}
      propertyPath: m_LocalRotation.w
      value: 0.70710784
      objectReference: {fileID: 0}
    - target: {fileID: 1903189428897995959, guid: 90b45c5ab2f7857448ffce3fca39c2ef, type: 3}
      propertyPath: m_LocalRotation.x
      value: -0
      objectReference: {fileID: 0}
    - target: {fileID: 1903189428897995959, guid: 90b45c5ab2f7857448ffce3fca39c2ef, type: 3}
      propertyPath: m_LocalRotation.y
      value: 0.70710576
      objectReference: {fileID: 0}
    - target: {fileID: 1903189428897995959, guid: 90b45c5ab2f7857448ffce3fca39c2ef, type: 3}
      propertyPath: m_LocalRotation.z
      value: -0
      objectReference: {fileID: 0}
    - target: {fileID: 1903189428897995959, guid: 90b45c5ab2f7857448ffce3fca39c2ef, type: 3}
      propertyPath: m_LocalEulerAnglesHint.x
      value: 0
      objectReference: {fileID: 0}
    - target: {fileID: 1903189428897995959, guid: 90b45c5ab2f7857448ffce3fca39c2ef, type: 3}
      propertyPath: m_LocalEulerAnglesHint.y
      value: 90
      objectReference: {fileID: 0}
    - target: {fileID: 1903189428897995959, guid: 90b45c5ab2f7857448ffce3fca39c2ef, type: 3}
      propertyPath: m_LocalEulerAnglesHint.z
      value: 0
      objectReference: {fileID: 0}
    - target: {fileID: 3930123308543201514, guid: 90b45c5ab2f7857448ffce3fca39c2ef, type: 3}
      propertyPath: m_LocalPosition.x
      value: -0.99999994
      objectReference: {fileID: 0}
    - target: {fileID: 3930123308543201514, guid: 90b45c5ab2f7857448ffce3fca39c2ef, type: 3}
      propertyPath: m_LocalPosition.z
      value: 0.0000029206276
      objectReference: {fileID: 0}
    - target: {fileID: 5649810825199235209, guid: 90b45c5ab2f7857448ffce3fca39c2ef, type: 3}
      propertyPath: m_LocalPosition.x
      value: -0.49999994
      objectReference: {fileID: 0}
    - target: {fileID: 5649810825199235209, guid: 90b45c5ab2f7857448ffce3fca39c2ef, type: 3}
      propertyPath: m_LocalPosition.z
      value: 0.34000292
      objectReference: {fileID: 0}
    - target: {fileID: 6107947509548861985, guid: 90b45c5ab2f7857448ffce3fca39c2ef, type: 3}
      propertyPath: m_Name
      value: building_house10_west
      objectReference: {fileID: 0}
    - target: {fileID: 6107947509548861985, guid: 90b45c5ab2f7857448ffce3fca39c2ef, type: 3}
      propertyPath: m_IsActive
      value: 1
      objectReference: {fileID: 0}
    - target: {fileID: 8976922601015535827, guid: 90b45c5ab2f7857448ffce3fca39c2ef, type: 3}
      propertyPath: m_LocalPosition.x
      value: -0.99999994
      objectReference: {fileID: 0}
    - target: {fileID: 8976922601015535827, guid: 90b45c5ab2f7857448ffce3fca39c2ef, type: 3}
      propertyPath: m_LocalPosition.z
      value: 0.0000029206276
      objectReference: {fileID: 0}
    - target: {fileID: 9168782452750746298, guid: 90b45c5ab2f7857448ffce3fca39c2ef, type: 3}
      propertyPath: m_LocalPosition.x
      value: -0.99999994
      objectReference: {fileID: 0}
    - target: {fileID: 9168782452750746298, guid: 90b45c5ab2f7857448ffce3fca39c2ef, type: 3}
      propertyPath: m_LocalPosition.z
      value: 0.0000029206276
      objectReference: {fileID: 0}
    m_RemovedComponents: []
  m_SourcePrefab: {fileID: 100100000, guid: 90b45c5ab2f7857448ffce3fca39c2ef, type: 3}
