%YAML 1.1
%TAG !u! tag:unity3d.com,2011:
--- !u!1001 &7600524013959552549
PrefabInstance:
  m_ObjectHideFlags: 0
  serializedVersion: 2
  m_Modification:
    m_TransformParent: {fileID: 0}
    m_Modifications:
    - target: {fileID: 23234208679940126, guid: fe094b8109438b7498874f8b43d9c95b, type: 3}
      propertyPath: m_RootOrder
      value: 0
      objectReference: {fileID: 0}
    - target: {fileID: 23234208679940126, guid: fe094b8109438b7498874f8b43d9c95b, type: 3}
      propertyPath: m_LocalPosition.x
      value: 0
      objectReference: {fileID: 0}
    - target: {fileID: 23234208679940126, guid: fe094b8109438b7498874f8b43d9c95b, type: 3}
      propertyPath: m_LocalPosition.y
      value: 0
      objectReference: {fileID: 0}
    - target: {fileID: 23234208679940126, guid: fe094b8109438b7498874f8b43d9c95b, type: 3}
      propertyPath: m_LocalPosition.z
      value: 0
      objectReference: {fileID: 0}
    - target: {fileID: 23234208679940126, guid: fe094b8109438b7498874f8b43d9c95b, type: 3}
      propertyPath: m_LocalRotation.w
      value: 0.70710784
      objectReference: {fileID: 0}
    - target: {fileID: 23234208679940126, guid: fe094b8109438b7498874f8b43d9c95b, type: 3}
      propertyPath: m_LocalRotation.x
      value: -0
      objectReference: {fileID: 0}
    - target: {fileID: 23234208679940126, guid: fe094b8109438b7498874f8b43d9c95b, type: 3}
      propertyPath: m_LocalRotation.y
      value: -0.70710576
      objectReference: {fileID: 0}
    - target: {fileID: 23234208679940126, guid: fe094b8109438b7498874f8b43d9c95b, type: 3}
      propertyPath: m_LocalRotation.z
      value: -0
      objectReference: {fileID: 0}
    - target: {fileID: 23234208679940126, guid: fe094b8109438b7498874f8b43d9c95b, type: 3}
      propertyPath: m_LocalEulerAnglesHint.x
      value: 0
      objectReference: {fileID: 0}
    - target: {fileID: 23234208679940126, guid: fe094b8109438b7498874f8b43d9c95b, type: 3}
      propertyPath: m_LocalEulerAnglesHint.y
      value: -90
      objectReference: {fileID: 0}
    - target: {fileID: 23234208679940126, guid: fe094b8109438b7498874f8b43d9c95b, type: 3}
      propertyPath: m_LocalEulerAnglesHint.z
      value: 0
      objectReference: {fileID: 0}
    - target: {fileID: 784801692574251923, guid: fe094b8109438b7498874f8b43d9c95b, type: 3}
      propertyPath: m_Name
      value: building_skyscraperB_east
      objectReference: {fileID: 0}
    - target: {fileID: 2605187276993458583, guid: fe094b8109438b7498874f8b43d9c95b, type: 3}
      propertyPath: m_LocalPosition.x
      value: 0.5000029
      objectReference: {fileID: 0}
    - target: {fileID: 2605187276993458583, guid: fe094b8109438b7498874f8b43d9c95b, type: 3}
      propertyPath: m_LocalPosition.z
      value: -0.5
      objectReference: {fileID: 0}
    - target: {fileID: 9056370927504477834, guid: fe094b8109438b7498874f8b43d9c95b, type: 3}
      propertyPath: m_LocalPosition.x
      value: 0.0000029206276
      objectReference: {fileID: 0}
    - target: {fileID: 9056370927504477834, guid: fe094b8109438b7498874f8b43d9c95b, type: 3}
      propertyPath: m_LocalPosition.z
      value: -1
      objectReference: {fileID: 0}
    m_RemovedComponents: []
  m_SourcePrefab: {fileID: 100100000, guid: fe094b8109438b7498874f8b43d9c95b, type: 3}
