%YAML 1.1
%TAG !u! tag:unity3d.com,2011:
--- !u!1001 &3442024961177553839
PrefabInstance:
  m_ObjectHideFlags: 0
  serializedVersion: 2
  m_Modification:
    m_TransformParent: {fileID: 0}
    m_Modifications:
    - target: {fileID: 1903861420876578452, guid: 4d949562de589184fbe56ce516d494b5, type: 3}
      propertyPath: m_Name
      value: building_house14_north
      objectReference: {fileID: 0}
    - target: {fileID: 2419244681212137425, guid: 4d949562de589184fbe56ce516d494b5, type: 3}
      propertyPath: m_LocalPosition.x
      value: -1.0000118
      objectReference: {fileID: 0}
    - target: {fileID: 2419244681212137425, guid: 4d949562de589184fbe56ce516d494b5, type: 3}
      propertyPath: m_LocalPosition.z
      value: -1.999994
      objectReference: {fileID: 0}
    - target: {fileID: 3976121361218637308, guid: 4d949562de589184fbe56ce516d494b5, type: 3}
      propertyPath: m_LocalPosition.x
      value: -1.0000118
      objectReference: {fileID: 0}
    - target: {fileID: 3976121361218637308, guid: 4d949562de589184fbe56ce516d494b5, type: 3}
      propertyPath: m_LocalPosition.z
      value: -1.999994
      objectReference: {fileID: 0}
    - target: {fileID: 6321278539985403795, guid: 4d949562de589184fbe56ce516d494b5, type: 3}
      propertyPath: m_LocalPosition.x
      value: -1.0000118
      objectReference: {fileID: 0}
    - target: {fileID: 6321278539985403795, guid: 4d949562de589184fbe56ce516d494b5, type: 3}
      propertyPath: m_LocalPosition.z
      value: -1.999994
      objectReference: {fileID: 0}
    - target: {fileID: 6628012904123423390, guid: 4d949562de589184fbe56ce516d494b5, type: 3}
      propertyPath: m_LocalPosition.x
      value: -0.5000118
      objectReference: {fileID: 0}
    - target: {fileID: 6628012904123423390, guid: 4d949562de589184fbe56ce516d494b5, type: 3}
      propertyPath: m_LocalPosition.z
      value: -1.499994
      objectReference: {fileID: 0}
    - target: {fileID: 8121807238852604313, guid: 4d949562de589184fbe56ce516d494b5, type: 3}
      propertyPath: m_RootOrder
      value: 0
      objectReference: {fileID: 0}
    - target: {fileID: 8121807238852604313, guid: 4d949562de589184fbe56ce516d494b5, type: 3}
      propertyPath: m_LocalPosition.x
      value: 0
      objectReference: {fileID: 0}
    - target: {fileID: 8121807238852604313, guid: 4d949562de589184fbe56ce516d494b5, type: 3}
      propertyPath: m_LocalPosition.y
      value: 0
      objectReference: {fileID: 0}
    - target: {fileID: 8121807238852604313, guid: 4d949562de589184fbe56ce516d494b5, type: 3}
      propertyPath: m_LocalPosition.z
      value: 0
      objectReference: {fileID: 0}
    - target: {fileID: 8121807238852604313, guid: 4d949562de589184fbe56ce516d494b5, type: 3}
      propertyPath: m_LocalRotation.w
      value: 0.0000029504295
      objectReference: {fileID: 0}
    - target: {fileID: 8121807238852604313, guid: 4d949562de589184fbe56ce516d494b5, type: 3}
      propertyPath: m_LocalRotation.x
      value: -0
      objectReference: {fileID: 0}
    - target: {fileID: 8121807238852604313, guid: 4d949562de589184fbe56ce516d494b5, type: 3}
      propertyPath: m_LocalRotation.y
      value: 1
      objectReference: {fileID: 0}
    - target: {fileID: 8121807238852604313, guid: 4d949562de589184fbe56ce516d494b5, type: 3}
      propertyPath: m_LocalRotation.z
      value: -0
      objectReference: {fileID: 0}
    - target: {fileID: 8121807238852604313, guid: 4d949562de589184fbe56ce516d494b5, type: 3}
      propertyPath: m_LocalEulerAnglesHint.x
      value: 0
      objectReference: {fileID: 0}
    - target: {fileID: 8121807238852604313, guid: 4d949562de589184fbe56ce516d494b5, type: 3}
      propertyPath: m_LocalEulerAnglesHint.y
      value: 180
      objectReference: {fileID: 0}
    - target: {fileID: 8121807238852604313, guid: 4d949562de589184fbe56ce516d494b5, type: 3}
      propertyPath: m_LocalEulerAnglesHint.z
      value: 0
      objectReference: {fileID: 0}
    m_RemovedComponents: []
  m_SourcePrefab: {fileID: 100100000, guid: 4d949562de589184fbe56ce516d494b5, type: 3}
