%YAML 1.1
%TAG !u! tag:unity3d.com,2011:
--- !u!1001 &8019943080999158824
PrefabInstance:
  m_ObjectHideFlags: 0
  serializedVersion: 2
  m_Modification:
    m_TransformParent: {fileID: 0}
    m_Modifications:
    - target: {fileID: 892418692819960454, guid: b5022f183aff0cd4bb406d2092519728, type: 3}
      propertyPath: m_LocalPosition.x
      value: 0.194
      objectReference: {fileID: 0}
    - target: {fileID: 892418692819960454, guid: b5022f183aff0cd4bb406d2092519728, type: 3}
      propertyPath: m_LocalPosition.z
      value: -2
      objectReference: {fileID: 0}
    - target: {fileID: 2140800555623853811, guid: b5022f183aff0cd4bb406d2092519728, type: 3}
      propertyPath: m_RootOrder
      value: 0
      objectReference: {fileID: 0}
    - target: {fileID: 2140800555623853811, guid: b5022f183aff0cd4bb406d2092519728, type: 3}
      propertyPath: m_LocalPosition.x
      value: 0
      objectReference: {fileID: 0}
    - target: {fileID: 2140800555623853811, guid: b5022f183aff0cd4bb406d2092519728, type: 3}
      propertyPath: m_LocalPosition.y
      value: 0
      objectReference: {fileID: 0}
    - target: {fileID: 2140800555623853811, guid: b5022f183aff0cd4bb406d2092519728, type: 3}
      propertyPath: m_LocalPosition.z
      value: 0
      objectReference: {fileID: 0}
    - target: {fileID: 2140800555623853811, guid: b5022f183aff0cd4bb406d2092519728, type: 3}
      propertyPath: m_LocalRotation.w
      value: 0.70710784
      objectReference: {fileID: 0}
    - target: {fileID: 2140800555623853811, guid: b5022f183aff0cd4bb406d2092519728, type: 3}
      propertyPath: m_LocalRotation.x
      value: -0
      objectReference: {fileID: 0}
    - target: {fileID: 2140800555623853811, guid: b5022f183aff0cd4bb406d2092519728, type: 3}
      propertyPath: m_LocalRotation.y
      value: -0.70710576
      objectReference: {fileID: 0}
    - target: {fileID: 2140800555623853811, guid: b5022f183aff0cd4bb406d2092519728, type: 3}
      propertyPath: m_LocalRotation.z
      value: -0
      objectReference: {fileID: 0}
    - target: {fileID: 2140800555623853811, guid: b5022f183aff0cd4bb406d2092519728, type: 3}
      propertyPath: m_LocalEulerAnglesHint.x
      value: 0
      objectReference: {fileID: 0}
    - target: {fileID: 2140800555623853811, guid: b5022f183aff0cd4bb406d2092519728, type: 3}
      propertyPath: m_LocalEulerAnglesHint.y
      value: -90
      objectReference: {fileID: 0}
    - target: {fileID: 2140800555623853811, guid: b5022f183aff0cd4bb406d2092519728, type: 3}
      propertyPath: m_LocalEulerAnglesHint.z
      value: 0
      objectReference: {fileID: 0}
    - target: {fileID: 2437268121564068699, guid: b5022f183aff0cd4bb406d2092519728, type: 3}
      propertyPath: m_LocalPosition.x
      value: 0.494
      objectReference: {fileID: 0}
    - target: {fileID: 2437268121564068699, guid: b5022f183aff0cd4bb406d2092519728, type: 3}
      propertyPath: m_LocalPosition.z
      value: -1.75
      objectReference: {fileID: 0}
    - target: {fileID: 5280533264454353675, guid: b5022f183aff0cd4bb406d2092519728, type: 3}
      propertyPath: m_Name
      value: building_house02_east Variant
      objectReference: {fileID: 0}
    - target: {fileID: 5708217339744024923, guid: b5022f183aff0cd4bb406d2092519728, type: 3}
      propertyPath: m_LocalPosition.x
      value: 0.194
      objectReference: {fileID: 0}
    - target: {fileID: 5708217339744024923, guid: b5022f183aff0cd4bb406d2092519728, type: 3}
      propertyPath: m_LocalPosition.z
      value: -2
      objectReference: {fileID: 0}
    - target: {fileID: 7119826515448953279, guid: b5022f183aff0cd4bb406d2092519728, type: 3}
      propertyPath: sizeX
      value: 3
      objectReference: {fileID: 0}
    - target: {fileID: 7119826515448953279, guid: b5022f183aff0cd4bb406d2092519728, type: 3}
      propertyPath: sizeY
      value: 2
      objectReference: {fileID: 0}
    - target: {fileID: 7119826515448953279, guid: b5022f183aff0cd4bb406d2092519728, type: 3}
      propertyPath: requiredRoadSegmentCoords.x
      value: 3
      objectReference: {fileID: 0}
    - target: {fileID: 7119826515448953279, guid: b5022f183aff0cd4bb406d2092519728, type: 3}
      propertyPath: requiredRoadSegmentCoords.y
      value: 1
      objectReference: {fileID: 0}
    - target: {fileID: 8289376480069959080, guid: b5022f183aff0cd4bb406d2092519728, type: 3}
      propertyPath: m_LocalPosition.x
      value: 0.194
      objectReference: {fileID: 0}
    - target: {fileID: 8289376480069959080, guid: b5022f183aff0cd4bb406d2092519728, type: 3}
      propertyPath: m_LocalPosition.z
      value: -2
      objectReference: {fileID: 0}
    m_RemovedComponents: []
  m_SourcePrefab: {fileID: 100100000, guid: b5022f183aff0cd4bb406d2092519728, type: 3}
