%YAML 1.1
%TAG !u! tag:unity3d.com,2011:
--- !u!1001 &5447393528411510908
PrefabInstance:
  m_ObjectHideFlags: 0
  serializedVersion: 2
  m_Modification:
    m_TransformParent: {fileID: 0}
    m_Modifications:
    - target: {fileID: 1903861420876578452, guid: 4d949562de589184fbe56ce516d494b5, type: 3}
      propertyPath: m_Name
      value: building_house14_west
      objectReference: {fileID: 0}
    - target: {fileID: 1903861420876578452, guid: 4d949562de589184fbe56ce516d494b5, type: 3}
      propertyPath: m_IsActive
      value: 1
      objectReference: {fileID: 0}
    - target: {fileID: 2019818414005903628, guid: 4d949562de589184fbe56ce516d494b5, type: 3}
      propertyPath: sizeX
      value: 3
      objectReference: {fileID: 0}
    - target: {fileID: 2019818414005903628, guid: 4d949562de589184fbe56ce516d494b5, type: 3}
      propertyPath: sizeY
      value: 2
      objectReference: {fileID: 0}
    - target: {fileID: 2419244681212137425, guid: 4d949562de589184fbe56ce516d494b5, type: 3}
      propertyPath: m_LocalPosition.x
      value: -0.99999994
      objectReference: {fileID: 0}
    - target: {fileID: 2419244681212137425, guid: 4d949562de589184fbe56ce516d494b5, type: 3}
      propertyPath: m_LocalPosition.z
      value: 0.0000029206276
      objectReference: {fileID: 0}
    - target: {fileID: 3976121361218637308, guid: 4d949562de589184fbe56ce516d494b5, type: 3}
      propertyPath: m_LocalPosition.x
      value: -0.99999994
      objectReference: {fileID: 0}
    - target: {fileID: 3976121361218637308, guid: 4d949562de589184fbe56ce516d494b5, type: 3}
      propertyPath: m_LocalPosition.z
      value: 0.0000029206276
      objectReference: {fileID: 0}
    - target: {fileID: 6321278539985403795, guid: 4d949562de589184fbe56ce516d494b5, type: 3}
      propertyPath: m_LocalPosition.x
      value: -0.99999994
      objectReference: {fileID: 0}
    - target: {fileID: 6321278539985403795, guid: 4d949562de589184fbe56ce516d494b5, type: 3}
      propertyPath: m_LocalPosition.z
      value: 0.0000029206276
      objectReference: {fileID: 0}
    - target: {fileID: 6628012904123423390, guid: 4d949562de589184fbe56ce516d494b5, type: 3}
      propertyPath: m_LocalPosition.x
      value: -0.49999994
      objectReference: {fileID: 0}
    - target: {fileID: 6628012904123423390, guid: 4d949562de589184fbe56ce516d494b5, type: 3}
      propertyPath: m_LocalPosition.z
      value: 0.5000029
      objectReference: {fileID: 0}
    - target: {fileID: 8121807238852604313, guid: 4d949562de589184fbe56ce516d494b5, type: 3}
      propertyPath: m_RootOrder
      value: 0
      objectReference: {fileID: 0}
    - target: {fileID: 8121807238852604313, guid: 4d949562de589184fbe56ce516d494b5, type: 3}
      propertyPath: m_LocalPosition.x
      value: 0
      objectReference: {fileID: 0}
    - target: {fileID: 8121807238852604313, guid: 4d949562de589184fbe56ce516d494b5, type: 3}
      propertyPath: m_LocalPosition.y
      value: 0
      objectReference: {fileID: 0}
    - target: {fileID: 8121807238852604313, guid: 4d949562de589184fbe56ce516d494b5, type: 3}
      propertyPath: m_LocalPosition.z
      value: 0
      objectReference: {fileID: 0}
    - target: {fileID: 8121807238852604313, guid: 4d949562de589184fbe56ce516d494b5, type: 3}
      propertyPath: m_LocalRotation.w
      value: 0.70710784
      objectReference: {fileID: 0}
    - target: {fileID: 8121807238852604313, guid: 4d949562de589184fbe56ce516d494b5, type: 3}
      propertyPath: m_LocalRotation.x
      value: -0
      objectReference: {fileID: 0}
    - target: {fileID: 8121807238852604313, guid: 4d949562de589184fbe56ce516d494b5, type: 3}
      propertyPath: m_LocalRotation.y
      value: 0.70710576
      objectReference: {fileID: 0}
    - target: {fileID: 8121807238852604313, guid: 4d949562de589184fbe56ce516d494b5, type: 3}
      propertyPath: m_LocalRotation.z
      value: -0
      objectReference: {fileID: 0}
    - target: {fileID: 8121807238852604313, guid: 4d949562de589184fbe56ce516d494b5, type: 3}
      propertyPath: m_LocalEulerAnglesHint.x
      value: 0
      objectReference: {fileID: 0}
    - target: {fileID: 8121807238852604313, guid: 4d949562de589184fbe56ce516d494b5, type: 3}
      propertyPath: m_LocalEulerAnglesHint.y
      value: 90
      objectReference: {fileID: 0}
    - target: {fileID: 8121807238852604313, guid: 4d949562de589184fbe56ce516d494b5, type: 3}
      propertyPath: m_LocalEulerAnglesHint.z
      value: 0
      objectReference: {fileID: 0}
    m_RemovedComponents: []
  m_SourcePrefab: {fileID: 100100000, guid: 4d949562de589184fbe56ce516d494b5, type: 3}
