%YAML 1.1
%TAG !u! tag:unity3d.com,2011:
--- !u!1 &1256528514950683202
GameObject:
  m_ObjectHideFlags: 0
  m_CorrespondingSourceObject: {fileID: 0}
  m_PrefabInstance: {fileID: 0}
  m_PrefabAsset: {fileID: 0}
  serializedVersion: 6
  m_Component:
  - component: {fileID: 5039023821249453936}
  m_Layer: 0
  m_Name: addons_fencerectangle
  m_TagString: Untagged
  m_Icon: {fileID: 0}
  m_NavMeshLayer: 0
  m_StaticEditorFlags: 4294967295
  m_IsActive: 1
--- !u!4 &5039023821249453936
Transform:
  m_ObjectHideFlags: 0
  m_CorrespondingSourceObject: {fileID: 0}
  m_PrefabInstance: {fileID: 0}
  m_PrefabAsset: {fileID: 0}
  m_GameObject: {fileID: 1256528514950683202}
  m_LocalRotation: {x: 0, y: 0, z: 0, w: 1}
  m_LocalPosition: {x: 0, y: 0, z: 0}
  m_LocalScale: {x: 0.99, y: 1, z: 1}
  m_Children:
  - {fileID: 5546066695452518582}
  m_Father: {fileID: 0}
  m_RootOrder: 0
  m_LocalEulerAnglesHint: {x: 0, y: 0, z: 0}
--- !u!1001 &5439555855612579677
PrefabInstance:
  m_ObjectHideFlags: 0
  serializedVersion: 2
  m_Modification:
    m_TransformParent: {fileID: 5039023821249453936}
    m_Modifications:
    - target: {fileID: -8679921383154817045, guid: d94dcfa8327d85b479eafef4c992e0d5, type: 3}
      propertyPath: m_RootOrder
      value: 0
      objectReference: {fileID: 0}
    - target: {fileID: -8679921383154817045, guid: d94dcfa8327d85b479eafef4c992e0d5, type: 3}
      propertyPath: m_LocalPosition.x
      value: 0
      objectReference: {fileID: 0}
    - target: {fileID: -8679921383154817045, guid: d94dcfa8327d85b479eafef4c992e0d5, type: 3}
      propertyPath: m_LocalPosition.y
      value: 0
      objectReference: {fileID: 0}
    - target: {fileID: -8679921383154817045, guid: d94dcfa8327d85b479eafef4c992e0d5, type: 3}
      propertyPath: m_LocalPosition.z
      value: 0
      objectReference: {fileID: 0}
    - target: {fileID: -8679921383154817045, guid: d94dcfa8327d85b479eafef4c992e0d5, type: 3}
      propertyPath: m_LocalRotation.w
      value: 1
      objectReference: {fileID: 0}
    - target: {fileID: -8679921383154817045, guid: d94dcfa8327d85b479eafef4c992e0d5, type: 3}
      propertyPath: m_LocalRotation.x
      value: -0
      objectReference: {fileID: 0}
    - target: {fileID: -8679921383154817045, guid: d94dcfa8327d85b479eafef4c992e0d5, type: 3}
      propertyPath: m_LocalRotation.y
      value: -0
      objectReference: {fileID: 0}
    - target: {fileID: -8679921383154817045, guid: d94dcfa8327d85b479eafef4c992e0d5, type: 3}
      propertyPath: m_LocalRotation.z
      value: -0
      objectReference: {fileID: 0}
    - target: {fileID: -8679921383154817045, guid: d94dcfa8327d85b479eafef4c992e0d5, type: 3}
      propertyPath: m_LocalEulerAnglesHint.x
      value: 0
      objectReference: {fileID: 0}
    - target: {fileID: -8679921383154817045, guid: d94dcfa8327d85b479eafef4c992e0d5, type: 3}
      propertyPath: m_LocalEulerAnglesHint.y
      value: 0
      objectReference: {fileID: 0}
    - target: {fileID: -8679921383154817045, guid: d94dcfa8327d85b479eafef4c992e0d5, type: 3}
      propertyPath: m_LocalEulerAnglesHint.z
      value: 0
      objectReference: {fileID: 0}
    - target: {fileID: -7511558181221131132, guid: d94dcfa8327d85b479eafef4c992e0d5, type: 3}
      propertyPath: m_Materials.Array.data[0]
      value: 
      objectReference: {fileID: 2100000, guid: 8d1c0d3681c04c841b3d7bef621e35ee, type: 2}
    - target: {fileID: 919132149155446097, guid: d94dcfa8327d85b479eafef4c992e0d5, type: 3}
      propertyPath: m_Name
      value: fence_rectangle
      objectReference: {fileID: 0}
    - target: {fileID: 919132149155446097, guid: d94dcfa8327d85b479eafef4c992e0d5, type: 3}
      propertyPath: m_StaticEditorFlags
      value: 4294967295
      objectReference: {fileID: 0}
    m_RemovedComponents: []
  m_SourcePrefab: {fileID: 100100000, guid: d94dcfa8327d85b479eafef4c992e0d5, type: 3}
--- !u!4 &5546066695452518582 stripped
Transform:
  m_CorrespondingSourceObject: {fileID: -8679921383154817045, guid: d94dcfa8327d85b479eafef4c992e0d5, type: 3}
  m_PrefabInstance: {fileID: 5439555855612579677}
  m_PrefabAsset: {fileID: 0}
