%YAML 1.1
%TAG !u! tag:unity3d.com,2011:
--- !u!1001 &794413067515998241
PrefabInstance:
  m_ObjectHideFlags: 0
  serializedVersion: 2
  m_Modification:
    m_TransformParent: {fileID: 0}
    m_Modifications:
    - target: {fileID: 620515896241752332, guid: 117c0b309a092fe4d83bf2fe3f298496, type: 3}
      propertyPath: m_Name
      value: car_shape01_blue Variant
      objectReference: {fileID: 0}
    - target: {fileID: 6207391098965628695, guid: 117c0b309a092fe4d83bf2fe3f298496, type: 3}
      propertyPath: m_Mesh
      value: 
      objectReference: {fileID: -3354358733795503696, guid: f44c4457e05f0d842acc64a1b8504d74, type: 3}
    - target: {fileID: 8871029098944426383, guid: 117c0b309a092fe4d83bf2fe3f298496, type: 3}
      propertyPath: m_RootOrder
      value: 0
      objectReference: {fileID: 0}
    - target: {fileID: 8871029098944426383, guid: 117c0b309a092fe4d83bf2fe3f298496, type: 3}
      propertyPath: m_LocalPosition.x
      value: 0
      objectReference: {fileID: 0}
    - target: {fileID: 8871029098944426383, guid: 117c0b309a092fe4d83bf2fe3f298496, type: 3}
      propertyPath: m_LocalPosition.y
      value: 0
      objectReference: {fileID: 0}
    - target: {fileID: 8871029098944426383, guid: 117c0b309a092fe4d83bf2fe3f298496, type: 3}
      propertyPath: m_LocalPosition.z
      value: 0
      objectReference: {fileID: 0}
    - target: {fileID: 8871029098944426383, guid: 117c0b309a092fe4d83bf2fe3f298496, type: 3}
      propertyPath: m_LocalRotation.w
      value: 1
      objectReference: {fileID: 0}
    - target: {fileID: 8871029098944426383, guid: 117c0b309a092fe4d83bf2fe3f298496, type: 3}
      propertyPath: m_LocalRotation.x
      value: 0
      objectReference: {fileID: 0}
    - target: {fileID: 8871029098944426383, guid: 117c0b309a092fe4d83bf2fe3f298496, type: 3}
      propertyPath: m_LocalRotation.y
      value: 0
      objectReference: {fileID: 0}
    - target: {fileID: 8871029098944426383, guid: 117c0b309a092fe4d83bf2fe3f298496, type: 3}
      propertyPath: m_LocalRotation.z
      value: 0
      objectReference: {fileID: 0}
    - target: {fileID: 8871029098944426383, guid: 117c0b309a092fe4d83bf2fe3f298496, type: 3}
      propertyPath: m_LocalEulerAnglesHint.x
      value: 0
      objectReference: {fileID: 0}
    - target: {fileID: 8871029098944426383, guid: 117c0b309a092fe4d83bf2fe3f298496, type: 3}
      propertyPath: m_LocalEulerAnglesHint.y
      value: 0
      objectReference: {fileID: 0}
    - target: {fileID: 8871029098944426383, guid: 117c0b309a092fe4d83bf2fe3f298496, type: 3}
      propertyPath: m_LocalEulerAnglesHint.z
      value: 0
      objectReference: {fileID: 0}
    m_RemovedComponents: []
  m_SourcePrefab: {fileID: 100100000, guid: 117c0b309a092fe4d83bf2fe3f298496, type: 3}
