%YAML 1.1
%TAG !u! tag:unity3d.com,2011:
--- !u!1001 &7465129637688628683
PrefabInstance:
  m_ObjectHideFlags: 0
  serializedVersion: 2
  m_Modification:
    m_TransformParent: {fileID: 0}
    m_Modifications:
    - target: {fileID: 1998536377128898728, guid: 12ac79590665fff449c07d2557cc2044, type: 3}
      propertyPath: m_RootOrder
      value: 0
      objectReference: {fileID: 0}
    - target: {fileID: 1998536377128898728, guid: 12ac79590665fff449c07d2557cc2044, type: 3}
      propertyPath: m_LocalPosition.x
      value: -1.25
      objectReference: {fileID: 0}
    - target: {fileID: 1998536377128898728, guid: 12ac79590665fff449c07d2557cc2044, type: 3}
      propertyPath: m_LocalPosition.y
      value: 0
      objectReference: {fileID: 0}
    - target: {fileID: 1998536377128898728, guid: 12ac79590665fff449c07d2557cc2044, type: 3}
      propertyPath: m_LocalPosition.z
      value: 0
      objectReference: {fileID: 0}
    - target: {fileID: 1998536377128898728, guid: 12ac79590665fff449c07d2557cc2044, type: 3}
      propertyPath: m_LocalRotation.w
      value: 1
      objectReference: {fileID: 0}
    - target: {fileID: 1998536377128898728, guid: 12ac79590665fff449c07d2557cc2044, type: 3}
      propertyPath: m_LocalRotation.x
      value: 0
      objectReference: {fileID: 0}
    - target: {fileID: 1998536377128898728, guid: 12ac79590665fff449c07d2557cc2044, type: 3}
      propertyPath: m_LocalRotation.y
      value: 0
      objectReference: {fileID: 0}
    - target: {fileID: 1998536377128898728, guid: 12ac79590665fff449c07d2557cc2044, type: 3}
      propertyPath: m_LocalRotation.z
      value: 0
      objectReference: {fileID: 0}
    - target: {fileID: 1998536377128898728, guid: 12ac79590665fff449c07d2557cc2044, type: 3}
      propertyPath: m_LocalEulerAnglesHint.x
      value: 0
      objectReference: {fileID: 0}
    - target: {fileID: 1998536377128898728, guid: 12ac79590665fff449c07d2557cc2044, type: 3}
      propertyPath: m_LocalEulerAnglesHint.y
      value: 0
      objectReference: {fileID: 0}
    - target: {fileID: 1998536377128898728, guid: 12ac79590665fff449c07d2557cc2044, type: 3}
      propertyPath: m_LocalEulerAnglesHint.z
      value: 0
      objectReference: {fileID: 0}
    - target: {fileID: 3928571096538691120, guid: 12ac79590665fff449c07d2557cc2044, type: 3}
      propertyPath: m_Mesh
      value: 
      objectReference: {fileID: 5031328182416227783, guid: 6615018460b3a7e4c8bc6b181e6f4762, type: 3}
    - target: {fileID: 7511019163997153323, guid: 12ac79590665fff449c07d2557cc2044, type: 3}
      propertyPath: m_Name
      value: car_shape05_yellow Variant
      objectReference: {fileID: 0}
    m_RemovedComponents:
    - {fileID: 0}
  m_SourcePrefab: {fileID: 100100000, guid: 12ac79590665fff449c07d2557cc2044, type: 3}
