%YAML 1.1
%TAG !u! tag:unity3d.com,2011:
--- !u!1001 &6183216535456274896
PrefabInstance:
  m_ObjectHideFlags: 0
  serializedVersion: 2
  m_Modification:
    m_TransformParent: {fileID: 0}
    m_Modifications:
    - target: {fileID: 380581302158300139, guid: cbb3f9b5a9cfc7846863abbf661e31b3, type: 3}
      propertyPath: m_RootOrder
      value: 0
      objectReference: {fileID: 0}
    - target: {fileID: 380581302158300139, guid: cbb3f9b5a9cfc7846863abbf661e31b3, type: 3}
      propertyPath: m_LocalPosition.x
      value: 0
      objectReference: {fileID: 0}
    - target: {fileID: 380581302158300139, guid: cbb3f9b5a9cfc7846863abbf661e31b3, type: 3}
      propertyPath: m_LocalPosition.y
      value: 0
      objectReference: {fileID: 0}
    - target: {fileID: 380581302158300139, guid: cbb3f9b5a9cfc7846863abbf661e31b3, type: 3}
      propertyPath: m_LocalPosition.z
      value: 0
      objectReference: {fileID: 0}
    - target: {fileID: 380581302158300139, guid: cbb3f9b5a9cfc7846863abbf661e31b3, type: 3}
      propertyPath: m_LocalRotation.w
      value: 1
      objectReference: {fileID: 0}
    - target: {fileID: 380581302158300139, guid: cbb3f9b5a9cfc7846863abbf661e31b3, type: 3}
      propertyPath: m_LocalRotation.x
      value: 0
      objectReference: {fileID: 0}
    - target: {fileID: 380581302158300139, guid: cbb3f9b5a9cfc7846863abbf661e31b3, type: 3}
      propertyPath: m_LocalRotation.y
      value: 0
      objectReference: {fileID: 0}
    - target: {fileID: 380581302158300139, guid: cbb3f9b5a9cfc7846863abbf661e31b3, type: 3}
      propertyPath: m_LocalRotation.z
      value: 0
      objectReference: {fileID: 0}
    - target: {fileID: 380581302158300139, guid: cbb3f9b5a9cfc7846863abbf661e31b3, type: 3}
      propertyPath: m_LocalEulerAnglesHint.x
      value: 0
      objectReference: {fileID: 0}
    - target: {fileID: 380581302158300139, guid: cbb3f9b5a9cfc7846863abbf661e31b3, type: 3}
      propertyPath: m_LocalEulerAnglesHint.y
      value: 0
      objectReference: {fileID: 0}
    - target: {fileID: 380581302158300139, guid: cbb3f9b5a9cfc7846863abbf661e31b3, type: 3}
      propertyPath: m_LocalEulerAnglesHint.z
      value: 0
      objectReference: {fileID: 0}
    - target: {fileID: 2914167658053498227, guid: cbb3f9b5a9cfc7846863abbf661e31b3, type: 3}
      propertyPath: m_Mesh
      value: 
      objectReference: {fileID: 3252554165392306359, guid: bb745bb63bc17e049b2e1e777fd10a38, type: 3}
    - target: {fileID: 8559269972726541160, guid: cbb3f9b5a9cfc7846863abbf661e31b3, type: 3}
      propertyPath: m_Name
      value: car_shape03_crimson Variant
      objectReference: {fileID: 0}
    m_RemovedComponents:
    - {fileID: 0}
  m_SourcePrefab: {fileID: 100100000, guid: cbb3f9b5a9cfc7846863abbf661e31b3, type: 3}
