%YAML 1.1
%TAG !u! tag:unity3d.com,2011:
--- !u!1001 &1548514453630826827
PrefabInstance:
  m_ObjectHideFlags: 0
  serializedVersion: 2
  m_Modification:
    m_TransformParent: {fileID: 0}
    m_Modifications:
    - target: {fileID: 620515896241752332, guid: 117c0b309a092fe4d83bf2fe3f298496, type: 3}
      propertyPath: m_Name
      value: car_shape02_yellow Variant
      objectReference: {fileID: 0}
    - target: {fileID: 6207391098965628695, guid: 117c0b309a092fe4d83bf2fe3f298496, type: 3}
      propertyPath: m_Mesh
      value: 
      objectReference: {fileID: -161932503174551346, guid: 46d93c977f3162140a5e0af3260c2d9a, type: 3}
    - target: {fileID: 8871029098944426383, guid: 117c0b309a092fe4d83bf2fe3f298496, type: 3}
      propertyPath: m_RootOrder
      value: 0
      objectReference: {fileID: 0}
    - target: {fileID: 8871029098944426383, guid: 117c0b309a092fe4d83bf2fe3f298496, type: 3}
      propertyPath: m_LocalPosition.x
      value: -1.25
      objectReference: {fileID: 0}
    - target: {fileID: 8871029098944426383, guid: 117c0b309a092fe4d83bf2fe3f298496, type: 3}
      propertyPath: m_LocalPosition.y
      value: 0
      objectReference: {fileID: 0}
    - target: {fileID: 8871029098944426383, guid: 117c0b309a092fe4d83bf2fe3f298496, type: 3}
      propertyPath: m_LocalPosition.z
      value: 0
      objectReference: {fileID: 0}
    - target: {fileID: 8871029098944426383, guid: 117c0b309a092fe4d83bf2fe3f298496, type: 3}
      propertyPath: m_LocalRotation.w
      value: 1
      objectReference: {fileID: 0}
    - target: {fileID: 8871029098944426383, guid: 117c0b309a092fe4d83bf2fe3f298496, type: 3}
      propertyPath: m_LocalRotation.x
      value: 0
      objectReference: {fileID: 0}
    - target: {fileID: 8871029098944426383, guid: 117c0b309a092fe4d83bf2fe3f298496, type: 3}
      propertyPath: m_LocalRotation.y
      value: 0
      objectReference: {fileID: 0}
    - target: {fileID: 8871029098944426383, guid: 117c0b309a092fe4d83bf2fe3f298496, type: 3}
      propertyPath: m_LocalRotation.z
      value: 0
      objectReference: {fileID: 0}
    - target: {fileID: 8871029098944426383, guid: 117c0b309a092fe4d83bf2fe3f298496, type: 3}
      propertyPath: m_LocalEulerAnglesHint.x
      value: 0
      objectReference: {fileID: 0}
    - target: {fileID: 8871029098944426383, guid: 117c0b309a092fe4d83bf2fe3f298496, type: 3}
      propertyPath: m_LocalEulerAnglesHint.y
      value: 0
      objectReference: {fileID: 0}
    - target: {fileID: 8871029098944426383, guid: 117c0b309a092fe4d83bf2fe3f298496, type: 3}
      propertyPath: m_LocalEulerAnglesHint.z
      value: 0
      objectReference: {fileID: 0}
    m_RemovedComponents: []
  m_SourcePrefab: {fileID: 100100000, guid: 117c0b309a092fe4d83bf2fe3f298496, type: 3}
